
setup_vision = yes
government = tribal
add_government_reform = tribal_kingdom
government_rank = 1
primary_culture = hujan
religion = mystic_accord
technology_group = tech_halessi
capital = 4710

1000.1.1 = { set_country_flag = mage_organization_decentralized_flag }

1438.12.30 = {
	monarch = {
		name = "Hijenpu"
		dynasty = "Hebat Hari"
		birth_date = 1409.11.14
		adm = 3
		dip = 3
		mil = 5
	}
	add_ruler_personality = zealot_personality 
	queen = {
		name = "Miri"
		dynasty = "Jawak Sinta"
		birth_date = 1412.5.20
		death_date = 1475.4.10
		female = yes
		adm = 3
		dip = 6
		mil = 2
	}
}
1440.3.10 = {
	heir = {
		name = "Ridwan"
		monarch_name = "Ridwan I"
		dynasty = "Hebat Hari"
		birth_date = 1440.3.10
		death_date = 1481.3.2
		claim = 95
		adm = 3
		dip = 1
		mil = 2
	}
}