
# If you add religions, and use those tags, do not change them without changing everywhere they are used.

# Uses all 'modifiers' possible thats exported as a Modifier.

cannorian = {
	can_form_personal_unions = yes
	defender_of_faith = yes
	flags_with_emblem_percentage = 33 # default == 0
	flag_emblem_index_range = { 1 57 }

	ai_will_propagate_through_trade = yes # This must also be placed in trade nodes for it to work
	
	center_of_religion = 840 #Trialmount
	
	regent_court = {
		color = { 182 182 182 }
		icon = 30
		allowed_conversion = {
			corinite
			ravelian
		}
		country = {
			tolerance_heathen = 2
			tolerance_heretic = 1
		}
		country_as_secondary = {
			tolerance_heathen = 2
		}
		
		personal_deity = yes
		hre_religion = yes

		on_convert = {
			change_religion = regent_court
			if = {
				limit = { NOT = { has_country_flag = emperor_religion_change } }
				add_prestige = -100
				
				add_country_modifier = {
					name = "conversion_zeal"
					duration = 3650
				}
			}
		}
		
		heretic = { OLD_PANTHEON }
	}
	
	corinite = {
		color = { 230 65 55 }
		icon = 78
		allowed_conversion = {
			regent_court #Back to mainline
			ravelian
		}
		allowed_center_conversion = {
			regent_court
		}
		
		country = {
			leader_land_shock = 1
			land_morale = 0.1
		}
		country_as_secondary = {
			land_morale = 0.05
		}
		
		hre_heretic_religion = yes
		uses_karma = yes
		allow_female_defenders_of_the_faith = yes
		
		will_get_center = { #Refered to even for initial CoR Spawn
			any_owned_province = {
				can_have_center_of_reformation_trigger = {
					RELIGION = corinite
				}
			}
		}

		on_convert = {
			change_religion = corinite
			if = {
				limit = { NOT = { has_country_flag = emperor_religion_change } }
				add_prestige = -100
				
				add_country_modifier = {
					name = "conversion_zeal"
					duration = 3650
				}
				
				if = {
					limit = {
						has_country_flag = reformation_money
						NOT = {
							calc_true_if = {
								all_province = {
									religion = corinite
									is_reformation_center = yes
								}
								amount = 3
							}
						}
					}
					hidden_effect = {
						random_owned_province = {
							limit = {
								can_have_center_of_reformation_trigger = {
									RELIGION = corinite
								}
							}
							change_religion = corinite
							add_reform_center = corinite
						}
					}
					custom_tooltip = CENTER_OF_REFORMATION_POSSIBLE
				}
				if = {
					limit = {
						NOT = { has_country_flag = reformation_money }
						NOT = {
							calc_true_if = {
								all_province = {
									religion = corinite
									is_reformation_center = yes
								}
								amount = 3
							}
						}
					}
					add_years_of_income = 1.0
					hidden_effect = {
						random_owned_province = {
							limit = {
								can_have_center_of_reformation_trigger = {
									RELIGION = corinite
								}
							}
							change_religion = corinite
							add_reform_center = corinite
						}
					}
					custom_tooltip = CENTER_OF_REFORMATION_POSSIBLE
				}
			}
		}
		
		heretic = { AGRADOS }
		
		date = 1510.1.1
	}
	
	ravelian = {
		color = { 69 69 69 }
		icon = 71
		allowed_conversion = {
			regent_court
			corinite
		}
		allowed_center_conversion = {
			regent_court
			corinite
		}
		country = {
			tolerance_heathen = 2
			global_institution_spread = 0.2
		}
		
		country_as_secondary = {
			tolerance_heathen = 1
			global_institution_spread = 0.10
		}
		
		allow_female_defenders_of_the_faith = yes
	
		will_get_center = { #Refered to even for initial CoR Spawn
			any_owned_province = {
				can_have_center_of_reformation_trigger = {
					RELIGION = ravelian
				}
				development = 20
			}
		}
		
		on_convert = {
			change_religion = ravelian
			if = {
				limit = { NOT = { has_country_flag = emperor_religion_change } }
				add_prestige = -100
				
				
				if = {
					limit = {
						has_country_flag = reformation_money
						NOT = {
							calc_true_if = {
								all_province = {
									religion = ravelian
									is_reformation_center = yes
								}
								amount = 3
							}
						}
					}
					hidden_effect = {
						random_owned_province = {
							limit = {
								can_have_center_of_reformation_trigger = {
									RELIGION = ravelian
								}
								development = 20	#so its an intellectual thing!
							}
							change_religion = ravelian
							add_reform_center = ravelian
						}
					}
					custom_tooltip = CENTER_OF_REFORMATION_POSSIBLE
				}
				if = {
					limit = {
						NOT = { has_country_flag = reformation_money }
						NOT = {
							calc_true_if = {
								all_province = {
									religion = ravelian
									is_reformation_center = yes
								}
								amount = 3
							}
						}
					}
					add_years_of_income = 1.0
					hidden_effect = {
						random_owned_province = {
							limit = {
								can_have_center_of_reformation_trigger = {
									RELIGION = ravelian
								}
							}
							change_religion = ravelian
							add_reform_center = ravelian
						}
					}
					custom_tooltip = CENTER_OF_REFORMATION_POSSIBLE
				}
				
				add_country_modifier = {
					name = "conversion_zeal"
					duration = 3650
				}			
				set_country_flag = reformation_money
				every_known_country = {
					limit = {
						reverse_has_opinion_modifier = {
							who = ROOT
							modifier = opinion_demote_pope
						}
					}
					reverse_remove_opinion = {
						who = ROOT
						modifier = opinion_demote_pope
					}
				}
			}
		}	
		
		
		heretic = { PURITAN }

		date = 1550.1.1

		papacy = {
			papal_tag = Z97
			election_cost = 5
			seat_of_papacy = 8 # anbenncost?

			#Council of Trent Positions
			harsh = { #zealot
				relation_with_heretics = -20
				
				global_religious_conversion_resistance = 0.25
				institution_spread_from_true_faith = 0.20
				global_missionary_strength = 0.02
			}
			neutral = {
				global_religious_conversion_resistance = -0.33
			}
			concilatory = { #erudite
				relation_with_heretics = 20

				global_religious_conversion_resistance = 0.25
				global_institution_spread = 0.10
				embracement_cost = -0.2
			}

			#Council of Trent Concessions
			concessions = {
				first_concession = {
					harsh = {	#Good Works
						relation_with_heretics = 20
						manpower_recovery_speed = 0.2		#good works as in faithful men and women
						curia_treasury_contribution = 0.1	#good works as in giving money to the church, ofc - lets see how balanced this is!

					}
					concilatory = {	#Rumination
						relation_with_heretics = -10
						papal_influence = 1	#means that more time is spent in theology and church academia, and in turn more about goings on of the church hierarchy itself. this modifier is very cheeky and very interesting
						prestige_decay = -0.01	#not sure about this, but probably means that you're more introspective

					}
				}
				second_concession = {
					harsh = {	#Inquisition
						relation_with_heretics = -20
						global_missionary_strength = 0.02	#classic
						unrest_catholic_provinces = -2		#controlling the populace
					
					}
					concilatory = {	#Discourse
						relation_with_heretics = 10
						tolerance_heretic = 1	#equivalents of controlling the populace but for other religions
						tolerance_heathen = 1
						prestige_per_development_from_conversion = 0.5	#quite an interesting one, but essentially winning over those with epic gamer logic is much cooler	

						
					}
				}
				third_concession = {
					harsh = {	#Saints
						relation_with_heretics = 20
						religious_unity = 0.25	#a cool idea, not sure about the value - using saints as a bridge to other religions means less friction as a whole
						improve_relation_modifier = 0.2	#same as above

					}
					concilatory = {	#Aspects
						relation_with_heretics = -20
						yearly_absolutism = 1	#scrutinization other religions under ONE GOD and ONE RULER
						missionary_maintenance_cost = -0.2	#the above needs dedicated dudes to do so? 

					}
				}
				fourth_concession = {
					harsh = {	#Masses
						artificers_loyalty_modifier = 0.1	#artificers as a whole are secular, and are happier to serve all
						production_efficiency = 0.05	#basic artificery goodness

					}
					concilatory = {	#Sanctified
						church_loyalty_modifier = 0.1	#the church likes having artificers under their control really
						yearly_corruption = -0.1 #? less red tape and stuff

						#TODO - if possible, make this give 1 artificer point
					}
				}
			}

			levy_artificer_tax = {
				cost = 50
				potential = {
					NOT = { tag = Z97 }
				}
				allow = {
					NOT = { war_with = Z97 }
					NOT = { has_country_modifier = sanction_for_artificer_tax }
					has_estate = estate_artificers
				}
				effect = {
					add_country_modifier = {
						name = "sanction_for_artificer_tax"
						duration = 7300
					}
				}
				ai_will_do = {
					factor = 1
				}				
			}
			tutelage_under_the_masters = {
				cost = 200
				potential = {
					NOT = { tag = Z97 }
				}
				allow = {
					NOT = { war_with = Z97 }
					OR = {
						NOT = { adm = 6 }
						NOT = { dip = 6 }
						NOT = { mil = 6 }
					}
				}
				effect = {
					IF = {
						limit = {
							adm = 6
							dip = 6
						}
						change_mil = 1
					}
					else_if = {
						limit = {
							adm = 6
							mil = 6
						}
						change_dip = 1
					}
					else_if = {
						limit = {
							mil = 6
							dip = 6
						}
						change_adm = 1
					}
					else_if = {
						limit = {
							adm = 6
						}
						random_list = {
							25 = { change_dip = 1 }
							25 = { change_mil = 1 }
						}
					}
					else_if = {
						limit = {
							dip = 6
						}
						random_list = {
							25 = { change_adm = 1 }
							25 = { change_mil = 1 }
						}
					}
					else_if = {
						limit = {
							mil = 6
						}
						random_list = {
							25 = { change_dip = 1 }
							25 = { change_adm = 1 }
						}
					}
					ELSE = {
						random_list = {
							25 = { change_adm = 1 }
							25 = { change_dip = 1 }
							25 = { change_mil = 1 }
						}
					}
				}
				ai_will_do = {
					factor = 1
					modifier = {
						factor = 2
						NOT = {
							adm = 3
							mil = 3
							dip = 3
						}
					}
				}
			}
			send_ravelian_scholars = {
				cost = 50
				potential = {
					NOT = { tag = Z97 }
				}
				allow = {
					NOT = { war_with = Z97 }
					NOT = { innovativeness = 100 }
				}
				effect = {
					IF = {
						limit = {
							NOT = { owns = 157 } 
							has_dlc = "Rule Britannia" 
						}
						change_innovativeness = 2
					}
					ELSE = {
						add_adm_power = 10
						add_dip_power = 10
						add_mil_power = 10
					}
				}
				ai_will_do = {
					factor = 1
					modifier = {
						factor = 0
						NOT = { has_idea_group = innovativeness_ideas }
					}
				}
			}
			bless_monarch = {
				cost = 50
				potential = {
					NOT = { tag = Z97 }
				}
				allow = {
					NOT = { war_with = Z97 }
					NOT = { prestige = 100 }
					NOT = { has_country_modifier = papal_blessing }
				}
				effect = {
					add_country_modifier = {
						name = "papal_blessing"
						duration = 7300
					}
				}
				ai_will_do = {
					factor = 1
					modifier = {
						factor = 0
						prestige = 95
					}
				}
			}
			local_saint = {
				cost = 100
				potential = {
					NOT = { tag = Z97 }
				}
				allow = {
					NOT = { war_with = Z97 }
					NOT = { stability = 3 }
				}
				effect = {
					add_stability = 1
				}
				ai_will_do = {
					factor = 1
					modifier = {
						factor = 2
						NOT = { stability = 0 }
					}
				}
			}
			use_warrior_automata = {
				cost = 50
				potential = {
					NOT = { tag = Z97 }
				}
				allow = {
				#	is_at_war = yes
					NOT = { war_with = Z97 }
					NOT = { has_country_modifier = warrior_automata }
				}
				effect = {
					add_country_modifier = {
						name = "warrior_automata"
						duration = 7300
					}
				}
				ai_will_do = {
					factor = 0.5
					modifier = {
						factor = 3
						is_at_war = yes
					}
				}
			}
			proclaim_holy_research = {
				cost = 50
				potential = {
					NOT = { tag = Z97 }
				}
				allow = {
					NOT = { war_with = Z97 }
					NOT = { has_country_modifier = holy_research }
				}
				effect = {
					add_country_modifier = {
						name = "holy_research"
						duration = 7300
					}
				}
				ai_will_do = {
					factor = 1
					modifier = {
						factor = 0
						is_lacking_institutions = no
					}
				}
			}
			sanction_commercial_monopoly = {
				cost = 50
				potential = {
					NOT = { tag = Z97 }
				}
				allow = {
					NOT = { war_with = Z97 }
					NOT = { mercantilism = 100 }
				}
				effect = {
					add_mercantilism = 1
				}
				ai_will_do = {
					factor = 1
					modifier = {
						factor = 0
						NOT = { has_idea_group = trade_ideas }
					}
				}
			}
		}
	}

	cannorian_pantheon = {
		color = { 204 204 204 }
		icon = 90
		allowed_conversion = {
			regent_court
		}
		country = {
			tolerance_heathen = 2
			tolerance_heretic = 2
			tolerance_own = 1
		}
		country_as_secondary = {
			tolerance_heathen = 2
			tolerance_heretic = 1
		}
		
		personal_deity = yes
		
		on_convert = {
			change_religion = cannorian_pantheon
			if = {
				limit = { 
					NOT = { has_country_flag = emperor_religion_change }
					NOT = { has_country_flag = updating_isolationism_window }
				}
				add_prestige = -100
				
				add_country_modifier = {
					name = "conversion_zeal"
					duration = 3650
				}
			}
		}
		
		heretic = { BHAKTI }
		
		
	}
	
	crusade_name = CRUSADE
	harmonized_modifier = harmonized_cannorian
}

faithless = {

	flags_with_emblem_percentage = 0 # default == 0
	flag_emblem_index_range = { 1 57 }
	
	center_of_religion = 169 #Nimscodd

	the_thought = {
		color = { 221 128 212 }
		icon = 37
		country = {
			tolerance_heathen = 2
			adm_tech_cost_modifier = -0.1
			artificers_loyalty_modifier = 0.05
		}
		country_as_secondary = {
			adm_tech_cost_modifier = -0.1
			stability_cost_modifier = -0.1
		}
		heretic = { TAOIST }
		uses_harmony = yes
	}
	
	godlost = {
		color = { 119 0 8 }
		icon = 79
		country = {
			tolerance_heathen = 2
			discipline = 0.025
		}
		country_as_secondary = {
			army_tradition_decay = -0.01
		}
		heretic = { CHAOS_WORSHIPPERS }
		personal_deity = yes
		
		harmonized_modifier = harmonized_godlost
	}

	kheionism = {
		color = { 99 99 133 }
		icon = 48
		allowed_conversion = {
		}
		country = {
			republican_tradition = 0.25
			trade_efficiency = 0.1
		}
		country_as_secondary = {
			trade_efficiency = 0.1
		}
		
		on_convert = {
			change_religion = kheionism 
			add_prestige = -100
			
			add_country_modifier = {
				name = "conversion_zeal"
				duration = 3650
			}
		}
		
		heretic = { EIONIST }

		harmonized_modifier = harmonized_kheionism
	}
	
	black_doctrine = {
		color = { 2 2 2 }
		icon = 76

		country = {
			max_absolutism = 10
			global_tax_modifier = 0.1
		}
		
		province = {
			local_tax_modifier = 0.1
		}
		
		country_as_secondary = {
			max_absolutism = 10
		}
		
		uses_church_power = yes				# Uses church power/aspect mechanics
		aspects = {
			one_people_under_magic
			bonds_of_tolerance
			no_gods_only_mages
			good_works_of_bureaucracy
			morning_prostrations
			cult_of_personality
			the_mages_peace
			schools_of_history
		}
		aspects_name = ANGLICAN_ASPECTS

		on_convert = {
			change_religion = black_doctrine
			add_prestige = -100
		}
		
		heretic = { CHAOS_WORSHIPPERS }

		harmonized_modifier = harmonized_black_doctrine
	}
	
	crusade_name = CRUSADE
}

kheteratan = {

	defender_of_faith = yes
	# can_form_personal_unions = no
	flags_with_emblem_percentage = 33 # default == 0
	flag_emblem_index_range = { 1 57 }
	
	center_of_religion = 475 #Kheterat

	khetist = {
		color = { 252 162 100 }
		icon = 38
		allowed_conversion = {
		}
		country = {
			tolerance_heathen = 2
			tolerance_own = 1
		}
		country_as_secondary = {
			tolerance_heathen = 1
			tolerance_own = 1
		}
		
		province = {
			local_missionary_strength = -0.02	#its harder to convert them 
		}
		
		on_convert = {
			change_religion = khetist
			add_prestige = -100
			
			add_country_modifier = {
				name = "conversion_zeal"
				duration = 3650
			}
		}
		
		heretic = { ELIKHETIST }
		
		gurus = {
			khetarch_baqtkhet_ii = {
				trigger = {
					always = yes
				}
				chance = {
					factor = 1000
				}
				modifier = {
					country_military_power = 1
				}
				teachings = {
					unite_the_realm = {
						type = ADM
						cost = 50

						stability_cost_modifier = -0.2
					}
					rebuild_the_nation = {
						type = DIP
						cost = 50

						production_efficiency = 0.15
					}
					vanquish_the_invaders = {
						type = MIL
						cost = 50

						manpower_recovery_speed = 0.2
					}
				}
			}
			
			khetarch_amsiskhet_iii = {
				trigger = {
					is_year = 1550
					is_month = 3
				}
				chance = {
					factor = 1000
				}
				modifier = {
					country_admin_power = 1
				}
				teachings = {
					embrace_the_future = {
						type = ADM
						cost = 50

						technology_cost = -0.1
					}
					tutor_the_people = {
						type = DIP
						cost = 50

						global_institution_spread = 0.2
					}
					control_the_satraps = {
						type = MIL
						cost = 50

						reduced_liberty_desire = 20
					}
				}
			}
			
			khetarch_shurkhet = {
				trigger = {
					is_year = 1650
					is_month = 5
				}
				chance = {
					factor = 1000
				}
				modifier = {
					country_admin_power = 1
				}
				teachings = {
					centralize_the_government = {
						type = ADM
						cost = 50

						yearly_absolutism = 1
					}
					organize_the_guilds = {
						type = DIP
						cost = 50

						administrative_efficiency = 0.1
					}
					repel_the_foreigners = {
						type = MIL
						cost = 50

						land_maintenance_modifier = -0.15
					}
				}
			}
			
			khetarch_sematkhet_ii = {
				trigger = {
					is_year = 1750
					is_month = 11
				}
				chance = {
					factor = 1000
				}
				modifier = {
					country_military_power = 1
				}
				teachings = {
					discipline_the_nobles = {
						type = ADM
						cost = 50

						autonomy_change_time = -0.15
					}
					integrate_the_barbarians = {
						type = DIP
						cost = 50

						diplomatic_annexation_cost = -0.25
					}
					marshal_the_armies = {
						type = MIL
						cost = 50

						manpower_in_true_faith_provinces = 0.2
					}
				}
			}
		}
	}
	
	dalcabba = {
		color = { 192 102 60 }
		icon = 77
		allowed_conversion = {
		}
		country = {
			legitimacy = 1
			republican_tradition = 0.30
			devotion = 1
			horde_unity = 1
			global_missionary_strength = 0.02
		}
		country_as_secondary = {
			legitimacy = 0.5
			republican_tradition = 0.15
			devotion = 0.5
			horde_unity = 0.5
			global_missionary_strength = 0.01
		}
		
		province = {
			local_missionary_strength = -0.02	#its harder to convert them 
		}
		
		on_convert = {
			change_religion = dalcabba
			if = {
				limit = { NOT = { tag = B38 } }
				add_prestige = -100
			}
			add_country_modifier = {
				name = "conversion_zeal"
				duration = 3650
			}
		}
		
		heretic = { ELIKHETIST }
		
		date = 1511.1.1
		
		gurus = {
			khetarch_baqtkhet_ii = {
				trigger = {
					always = yes
				}
				chance = {
					factor = 1000
				}
				modifier = {
					country_military_power = 1
				}
				teachings = {
					unite_the_realm = {
						type = ADM
						cost = 50

						stability_cost_modifier = -0.2
					}
					rebuild_the_nation = {
						type = DIP
						cost = 50

						production_efficiency = 0.15
					}
					vanquish_the_invaders = {
						type = MIL
						cost = 50

						manpower_recovery_speed = 0.2
					}
				}
			}
			
			khetarch_amsiskhet_iii = {
				trigger = {
					is_year = 1550
					is_month = 3
				}
				chance = {
					factor = 1000
				}
				modifier = {
					country_admin_power = 1
				}
				teachings = {
					embrace_the_future = {
						type = ADM
						cost = 50

						technology_cost = -0.1
					}
					tutor_the_people = {
						type = DIP
						cost = 50

						global_institution_spread = 0.2
					}
					control_the_satraps = {
						type = MIL
						cost = 50

						reduced_liberty_desire = 20
					}
				}
			}
			
			khetarch_shurkhet = {
				trigger = {
					is_year = 1650
					is_month = 5
				}
				chance = {
					factor = 1000
				}
				modifier = {
					country_admin_power = 1
				}
				teachings = {
					centralize_the_government = {
						type = ADM
						cost = 50

						yearly_absolutism = 1
					}
					organize_the_guilds = {
						type = DIP
						cost = 50

						administrative_efficiency = 0.1
					}
					repel_the_foreigners = {
						type = MIL
						cost = 50

						land_maintenance_modifier = -0.15
					}
				}
			}
			
			khetarch_sematkhet_ii = {
				trigger = {
					is_year = 1750
					is_month = 11
				}
				chance = {
					factor = 1000
				}
				modifier = {
					country_military_power = 1
				}
				teachings = {
					discipline_the_nobles = {
						type = ADM
						cost = 50

						autonomy_change_time = -0.15
					}
					integrate_the_barbarians = {
						type = DIP
						cost = 50

						diplomatic_annexation_cost = -0.25
					}
					marshal_the_armies = {
						type = MIL
						cost = 50

						manpower_in_true_faith_provinces = 0.2
					}
				}
			}
		}
	}
	
	mother_akan = {
		color = { 200 162 100 }
		icon = 40
		allowed_conversion = {
		}
		country = {
			defensiveness = 0.1
			tolerance_own = 1
		}
		country_as_secondary = {
			defensiveness = 0.1
		}
		
		province = {
			local_missionary_strength = -0.02	#its harder to convert them 
		}
		
		personal_deity = yes

		on_convert = {
			change_religion = mother_akan
			add_prestige = -100
			
			add_country_modifier = {
				name = "conversion_zeal"
				duration = 3650
			}
		}
		
		heretic = { FATHER_AKAN }
	}
	
	harmonized_modifier = harmonized_kheteratan
	
	crusade_name = HOLY_WAR
}

gnollish = {

	# can_form_personal_unions = no
	flags_with_emblem_percentage = 33 # default == 0
	flag_emblem_index_range = { 1 57 }

	xhazobkult = {
		color = { 181 230 29 }
		icon = 35
		allowed_conversion = {
		}
		country = {
			land_morale = 0.1
			available_province_loot = 0.25
			artificers_influence_modifier = -0.05
		}
		country_as_secondary = {
			land_morale = 0.1
			available_province_loot = 0.15
		}
		
		has_patriarchs = yes
		
		orthodox_icons = {
			# If no icon has ai_will_do above 1 - <current patriarch authority> , the AI will not enact it. (60% PA = 0.6 -> ai_will_do has to be at least 0.4)

			invocation_of_hellfire = {
				shock_damage = 0.15
				recover_army_morale_speed = 0.15
				
				allow = {
					always = yes
				}
				ai_will_do = {
					factor = 1
				}
			}

			invocation_of_chains = {
				harsh_treatment_cost = -0.25
				global_trade_goods_size_modifier = 0.1
				
				allow = {
					always = yes
				}
				ai_will_do = {
					factor = 1
				}
			}

			invocation_of_blood = {
				war_exhaustion = -0.05
				manpower_recovery_speed = 0.1
				
				allow = {
					always = yes
				}
				ai_will_do = {
					factor = 1
				}
			}
	
			invocation_of_gold = {
				trade_efficiency = 0.1
				privateer_efficiency = 0.25
				
				allow = {
					always = yes
				}
				ai_will_do = {
					factor = 1
				}
			}

			invocation_of_eyes = {
				technology_cost = -0.05
				spy_offence = 0.1
				
				allow = {
					always = yes
				}
				ai_will_do = {
					factor = 1
				}
			}
		}
		
		province = {
			local_missionary_strength = -0.02	#its harder to convert them 
		}
		
		on_convert = {
			change_religion = xhazobkult
			add_prestige = -100
			
			add_country_modifier = {
				name = "conversion_zeal"
				duration = 3650
			}
			
			every_owned_province = {
				xhazobkult_set_appropriate_modifier = yes
			}
		}
		
		heretic = { BAINIST }
	}
	
	harmonized_modifier = harmonized_gnollish
	
	crusade_name = HOLY_WAR
}

dwarven = {

	# can_form_personal_unions = no
	flags_with_emblem_percentage = 33 # default == 0
	flag_emblem_index_range = { 1 57 }

	ancestor_worship = {
		color = { 99 99 99 }
		icon = 80
		allowed_conversion = {
		}
		country = {
			same_culture_advisor_cost = -0.20
			defensiveness = 0.15
		}
		country_as_secondary = {
			same_culture_advisor_cost = -0.20
		}
		
		on_convert = {
			change_religion = ancestor_worship 
			add_prestige = -100
			
			add_country_modifier = {
				name = "conversion_zeal"
				duration = 3650
			}
		}
		
		heretic = { DEIST }
		
		holy_sites = { 4119 4311 2931 4078 4093 2963 4269 }		
		
		blessings = {
			global_unrest_dwarf
			dev_cost_dwarf
			tolerance_own_dwarf
			build_cost_dwarf
			morale_dwarf
			institution_spread_dwarf
			global_colonial_growth_dwarf
		}
	}
	
	runefather_worship = {
		color = { 50 30 50 }
		icon = 43
		allowed_conversion = {
		}
		country = {
			discipline = 0.025
			tolerance_heretic = -5
		}
		country_as_secondary = {
			discipline = 0.025
		}
		province = {
			trade_goods_size = 0.1
		}
		
		on_convert = {
			change_religion = runefather_worship
			add_prestige = -100
			
			add_country_modifier = {
				name = "conversion_zeal"
				duration = 3650
			}
			# set_runelink_level = yes #Remove above and uncomment that when paradox fixed it
			if = {
				limit = { religion = runefather_worship }
				if = {
					limit = { REB = { check_variable = { runeLevel = 4 } } }
					add_isolationism = 6
				}
				else_if = {
					limit = { REB = { check_variable = { runeLevel = 3 } } }
					add_isolationism = 5
				}
				else_if = {
					limit = { REB = { check_variable = { runeLevel = 2 } } }
					add_isolationism = 4
				}
				else_if = {
					limit = { REB = { check_variable = { runeLevel = 1 } } }
					add_isolationism = 3
				}
				else_if = {
					limit = { REB = { check_variable = { runeLevel = 0 } } }
					add_isolationism = 2
				}
			}
		}
		
		heretic = { DEIST }
		uses_isolationism = yes
	}
	
	harmonized_modifier = harmonized_dwarven
	
	crusade_name = HOLY_WAR
}

elven = {

	# can_form_personal_unions = no
	flags_with_emblem_percentage = 33 # default == 0
	flag_emblem_index_range = { 1 57 }

	elven_forebears = {
		color = { 186 241 248 }
		icon = 39
		allowed_conversion = {
		}
		country = {
			prestige_decay = -0.02
			tolerance_heathen = 2
		}
		country_as_secondary = {
			prestige_decay = -0.01 
			tolerance_heathen = 2
		}

		uses_church_power = yes
		aspects = {
			#Generic Elf
			ivrandir_1
			ivrandir_2
			ivrandir_3
			oloris_1
			oloris_2
			oloris_3
			arfil_1
			arfil_2
			arfil_3

			#Elf Compatible
			munas_1
			munas_2
			munas_3

			#Elf Non-Compatible
			personal_1
			personal_2
			personal_3

			#Ibevar
			ibenion_1
			ibenion_2
			ibenion_3
			tanelia_1
			tanelia_2
			tanelia_3
			varamel_1
			varamel_2
			varamel_3

			#Silent Repose
			arda_1
			arda_2
			arda_3
			jahelor_1
			jahelor_2
			jahelor_3
			elethen_1
			elethen_2
			elethen_3

			#Pelodaire
			rulership_1
			rulership_2
			rulership_3
			warfare_1
			warfare_2
			warfare_3
			wealth_1
			wealth_2
			wealth_3

			#Venail
			camnaril_1
			camnaril_2
			camnaril_3
			boats_1
			boats_2
			boats_3
			tech_1
			tech_2
			tech_3
		}

		aspects_name = ELVEN_FOREBEARS_ASPECTS
		
		on_convert = {
			change_religion = elven_forebears
			add_prestige = -100
			
			add_country_modifier = {
				name = "conversion_zeal"
				duration = 3650
			}
		}
		
		heretic = { GUARDIAN }
	}
	
	soise_vio = {
		color = { 200 170 180 }
		icon = 81
		allowed_conversion = {
			
		}
		country = {
			global_unrest = -1
			tolerance_heathen = -1
		}
		country_as_secondary = {
			global_unrest = -1
		}
		
		personal_deity = yes

		on_convert = {
			change_religion = soise_vio
			add_prestige = -100
			
			add_country_modifier = {
				name = "conversion_zeal"
				duration = 3650
			}
		}
		
		heretic = { GUARDIAN }
	}
	
	nur_dahvaraesa = {
		color = { 200 170 180 }
		icon = 72
		allowed_conversion = {
			
		}
		country = {
			global_missionary_strength = 0.01
			stability_cost_modifier = -0.25
			tolerance_heathen = -3
		}
		country_as_secondary = {
			global_missionary_strength = 0.025
		}

		on_convert = {
			change_religion = nur_dahvaraesa
			add_prestige = -100
			
			add_country_modifier = {
				name = "conversion_zeal"
				duration = 3650
			}
		}
		
		heretic = { GUARDIAN }
	}
	
	harmonized_modifier = harmonized_elven
	
	crusade_name = HOLY_WAR
}

bulwari = {

	# can_form_personal_unions = no
	defender_of_faith = yes
	flags_with_emblem_percentage = 33 # default == 0
	flag_emblem_index_range = { 1 57 }
	
	center_of_religion = 601 #Bulwar or something

	bulwari_sun_cult = {
		color = { 255 201 14 }
		icon = 46
		allowed_conversion = {
		}
		country = {
			global_unrest = -2
			recover_army_morale_speed = 0.10 
		} 
		country_as_secondary = {
			global_unrest = -1
			recover_army_morale_speed = 0.05
		}
		
		allow_female_defenders_of_the_faith = yes
		
		province = {
			local_missionary_strength = -0.02	#its harder to convert them 
		}
		
		uses_isolationism = yes 
		allow_female_defenders_of_the_faith = yes
		
		on_convert = {
			change_religion = bulwari_sun_cult
			if = { limit = { NOT = { has_country_flag = updating_isolationism_window } }
				add_prestige = -100
				
				add_country_modifier = {
					name = "conversion_zeal"
					duration = 3650
				}
			}
		}
		
		heretic = { ECLIPSE }
	}

	old_bulwari_sun_cult = {
		color = { 255 67 24 }
		icon = 44
		allowed_conversion = {
		}
		country = {
			garrison_size = 0.4
			tolerance_own = 2
		} 
		country_as_secondary = {
			garrison_size = 0.1
			tolerance_own = 1
		}
		
		holy_sites = { 601 631 643 522 5434 }
		
		blessings = {
			prepare_the_return_of_surakel
			shelter_the_remaining_light
			keep_the_light_of_your_children
			speak_no_lies_dark_and_false
			let_shine_the_light_of_joy
		}
		
		province = {
			local_defensiveness = 0.1
			local_missionary_strength = -0.03	#its harder to convert them 
		}
		
		on_convert = {
			change_religion = old_bulwari_sun_cult
			add_prestige = -100
			
			add_country_modifier = {
				name = "conversion_zeal"
				duration = 3650
			}
		}
		
		heretic = { ECLIPSE }
	}
	
	the_jadd = {
		color = { 255 138 12 }
		icon = 45
		allowed_conversion = {
		}
		country = {
			num_accepted_cultures  = 1
			promote_culture_cost = -0.25
		} 
		country_as_secondary = {
			promote_culture_cost = -0.25
			land_morale = 0.1
		}
		
		fervor = yes
		allow_female_defenders_of_the_faith = yes
		
		province = {
			local_missionary_strength = -0.02	#its harder to convert them
			# local_manpower_modifier  = 0.25
		}
		
		on_convert = {
			change_religion = the_jadd
			add_prestige = -100
			
			add_country_modifier = {
				name = "conversion_zeal"
				duration = 3650
			}
		}
		
		heretic = { ECLIPSE }
	}
	
	crusade_name = HOLY_WAR
	
	harmonized_modifier = harmonized_bulwari
}

gerudian = {

	# can_form_personal_unions = no
	flags_with_emblem_percentage = 33 # default == 0
	flag_emblem_index_range = { 1 57 }
	
	center_of_religion = 974 #Draksbur

	skaldhyrric_faith = {
		color = { 255 201 201 }
		icon = 82
		allowed_conversion = {
		}
		country = {
			stability_cost_modifier = -0.1
			tolerance_own = 2
		} 
		country_as_secondary = {
			stability_cost_modifier = -0.1
		}
		personal_deity = yes
		
		province = {
			local_missionary_strength = -0.02	#its harder to convert them 
		}
		
		on_convert = {
			change_religion = skaldhyrric_faith
			add_prestige = -100
			
			add_country_modifier = {
				name = "conversion_zeal"
				duration = 3650
			}
		}
		
		heretic = { AWAKER }
	}

	harmonized_modifier = harmonized_gerudian
	
	crusade_name = HOLY_WAR
}

orcish = {

	# can_form_personal_unions = no
	flags_with_emblem_percentage = 33 # default == 0
	flag_emblem_index_range = { 1 57 }
	
	center_of_religion = 677 #Jorkad Hall Outside

	great_dookan = {
		color = { 43 106 62 }
		icon = 33
		allowed_conversion = {
			old_dookan
		}
		country = {
			land_morale = 0.1
			prestige_from_land = 0.25
			tolerance_heathen = -2
		}
		country_as_secondary = {
			land_morale = 0.1
		}
		
		uses_anglican_power = yes				# Uses church power/aspect mechanics
		aspects = {
			find_reincarnated_warrior_aspect
			shake_the_earth_great
			invoke_warrior_heritage_aspect
			#glorious_looting_aspect
			#purge_the_weak_aspect
			gather_great_host_great_aspect
			assemble_shamans_great_aspect
			anoint_slave_herd_great
		}
		aspects_name = ANGLICAN_ASPECTS
		
		on_convert = {
			change_religion = great_dookan
			add_prestige = -100
			
			add_country_modifier = {
				name = "conversion_zeal"
				duration = 3650
			}
		}
		
		heretic = { DENIER }
	}

	old_dookan = {
		color = { 13 56 22 }
		icon = 34
		allowed_conversion = {
			great_dookan
		}
		country = {
			army_tradition = 0.5
			global_unrest = -1
			tolerance_heretic = -2
		}
		country_as_secondary = {
			army_tradition = 0.3
		}
		
		uses_anglican_power = yes				# Uses church power/aspect mechanics
		aspects = {
			look_for_omens
			shake_the_earth_old
			ask_for_dookan_guidance
			#glorious_looting_aspect
			#purge_the_weak_aspect
			gather_great_host_old_aspect
			assemble_shamans_old_aspect
			anoint_slave_herd_old
		}
		aspects_name = ANGLICAN_ASPECTS
		
		on_convert = {
			change_religion = old_dookan
			add_prestige = -100
			
			add_country_modifier = {
				name = "conversion_zeal"
				duration = 3650
			}
		}
		
		heretic = { DENIER }
	}
	
	bulgu_orazan = {
		color = { 8 150 19 }
		icon = 63
		allowed_conversion = {
		}
		country = {
			institution_spread_from_true_faith = 0.20
			global_unrest = -1
		}
		country_as_secondary = {
			institution_spread_from_true_faith = 0.10
		}
		
		uses_church_power = yes				# Uses church power/aspect mechanics
		aspects = {
			bulgu_songs_of_korgus
			bulgu_songs_of_bramash
			bulgu_songs_of_brasur
			bulgu_songs_of_brown_struggle
			bulgu_songs_of_bluetusk
			bulgu_songs_of_ashentree
			bulgu_songs_of_maxug
			bulgu_songs_of_shattering
			bulgu_songs_of_rowing
			bulgu_songs_of_bordu
		}
		aspects_name = BULGU_ORAZAN_ASPECTS
		
		on_convert = {
			change_religion = bulgu_orazan
			add_prestige = -100
			
			add_country_modifier = {
				name = "conversion_zeal"
				duration = 3650
			}
		}
		
		heretic = { DENIER }
	}
	
	harmonized_modifier = harmonized_orcish
	
	crusade_name = HOLY_WAR
}

dragon_cult = {

	# can_form_personal_unions = no
	flags_with_emblem_percentage = 33 # default == 0
	flag_emblem_index_range = { 1 57 }
	
	center_of_religion = 189 #Deep Kobilderd

	kobold_dragon_cult = {
		color = { 3 85 124 }
		icon = 36
		allowed_conversion = {
		}
		country = {
			loot_amount = 0.5
			available_province_loot = 0.5
		}
		country_as_secondary = {
			loot_amount = 0.2
			available_province_loot = 0.2
		}
		
		on_convert = {
			change_religion = kobold_dragon_cult
			add_prestige = -100
			
			add_country_modifier = {
				name = "conversion_zeal"
				duration = 3650
			}
		}
		
		heretic = { DENIER }
	}
	
	drozma_tur = {
		color = { 61  179  26 }
		icon = 64
		allowed_conversion = {
		}
		country = {
			movement_speed = 0.2
			tolerance_own = 1
		}
		country_as_secondary = {
			movement_speed = 0.2
			tolerance_own = 1
		}
		
		on_convert = {
			change_religion = drozma_tur
			add_prestige = -100
			
			add_country_modifier = {
				name = "conversion_zeal"
				duration = 3650
			}
		}
		
		heretic = { YNN_DROZMA }
	}

	kobold_serpent_cult = {
		color = { 0 200 50 }
		icon = 83
		allowed_conversion = {
		}
		country = {
			loot_amount = 0.5
			tolerance_heretic = 2
		}
		country_as_secondary = {
			loot_amount = 0.2
			tolerance_heretic = 2
		}
		
		uses_hussite_power = yes
		
		aspects = {
			test_1_aspect
			test_new_hovel_aspect
			test_amldihr_aspect
		}
		aspects_name = PROTESTANT_ASPECTS
		on_convert = {
			change_religion = kobold_serpent_cult
			add_prestige = -100
			
			add_country_modifier = {
				name = "conversion_zeal"
				duration = 3650
			}
		}
		
		heretic = { DENIER }
	}
	
	harmonized_modifier = harmonized_dragon_cult
	
	crusade_name = HOLY_WAR
}

goblin = {

	# can_form_personal_unions = no
	flags_with_emblem_percentage = 33 # default == 0
	flag_emblem_index_range = { 1 57 }
	
	goblinic_shamanism = {	#The plural for goblin is goblinoid
		color = { 127 76 76 }
		icon = 49
		country = {
			tolerance_heathen = 2
			loot_amount = 0.10
		}
		country_as_secondary = {
			tolerance_own = 2
			loot_amount = 0.25
		}

		fetishist_cult = yes
		heretic = { CHAOS_WORSHIPPERS }
	}
	
	harmonized_modifier = harmonized_goblin
	
	crusade_name = HOLY_WAR
}

harpy_cults = {

	# can_form_personal_unions = no
	flags_with_emblem_percentage = 33 # default == 0
	flag_emblem_index_range = { 1 57 }
	
	the_hunt = {	
		color = { 173 148 124 }
		icon = 41
		country = {
			leader_land_shock = 1
			tolerance_heathen = 3
		}
		country_as_secondary = {
			leader_land_shock = 1
		}
		
		uses_anglican_power = yes				# Uses church power/aspect mechanics
		aspects = {
			harpy_gain_heir_aspect
			harpy_move_pop_aspect
			harpy_raid_neighbour_aspect
			harpy_fair_winds_aspect
			harpy_gain_siege_aspect
		}
		aspects_name = ANGLICAN_ASPECTS

		heretic = { PREY }
	}
	
	harmonized_modifier = harmonized_harpy_cults
	
	crusade_name = HOLY_WAR
}

aelantiri = {

	# can_form_personal_unions = no
	flags_with_emblem_percentage = 33 # default == 0
	flag_emblem_index_range = { 1 57 }
	
	weeping_mother = {
		color = { 255 120 128 }
		icon = 60
		allowed_conversion = {
		}
		country = {
			global_unrest = -2
			tolerance_own = 1
		}
		country_as_secondary = {
			global_unrest = -2
		}
		
		province = {
			local_missionary_strength = 0.02	#its easy to convert them
		}
		
		on_convert = {
			change_religion = weeping_mother 
			add_prestige = -100
			
			add_country_modifier = {
				name = "conversion_zeal"
				duration = 3650
			}
		}
		
		heretic = { WEEPING_TREE }
	}

	dotimism = {
		color = { 173 86 69 }
		icon = 100
		country = {
			tolerance_own = 1
			global_unrest = -1
		}
		uses_judaism_power = yes
		aspects_name = DOTIM_ASPECTS
		
		aspects = {
			grandmother_sky
			great_eagle_spirit
			ancestors_guidance
			winged_beast
			colour_of_all_things
			primodial_wings
			river_daughter
			great_wolf_spirit
			heavens_bounty
			frozen_beast
			words_of_water
			end_of_all_things
			earth_brother
			great_beaver_spirit
			heart_of_flame
			beast_of_stone
			fury_of_the_living
			god_without_shape
		}
		
		celebrate = {
			cost = 200
			potential = {
			}
			allow = {
				has_three_dotim = yes
			}
			effect = {
				country_event = { id = dotimist_flavour.1 }
			}
			ai_will_do = {
				factor = 1
				modifier = {
					factor = 0
					NOT = {
						OR = {
							has_church_aspect = grandmother_sky
							has_church_aspect = great_eagle_spirit
							has_church_aspect = ancestors_guidance
							has_church_aspect = winged_beast
							has_church_aspect = colour_of_all_things
							has_church_aspect = primodial_wings
						}
						OR = {
							has_church_aspect = river_daughter
							has_church_aspect = great_wolf_spirit
							has_church_aspect = heavens_bounty
							has_church_aspect = frozen_beast
							has_church_aspect = words_of_water
							has_church_aspect = end_of_all_things
						}
						OR = {
							has_church_aspect = earth_brother
							has_church_aspect = great_beaver_spirit
							has_church_aspect = heart_of_flame
							has_church_aspect = beast_of_stone
							has_church_aspect = fury_of_the_living
							has_church_aspect = god_without_shape
						}
					}
				}
			}
		}
		
		country_as_secondary = {
			tolerance_own = 2
			loot_amount = 0.25
		}
		province = {
			local_missionary_strength = 0.02
		}
		
		heretic = { BEAR_SPIRIT }	
	}

	raeldaeriach = {
		color = { 32 63 123 }
		icon = 74
			
		allowed_conversion = {
		}
		country = {
			tolerance_heathen = -1
			tolerance_own = 2
			stability_cost_modifier = -0.20
		}
		province = {
			local_missionary_strength = 0.01 # Easy to convert
		}
		country_as_secondary = {
			tolerance_own = 1
		}
		on_convert = {
			change_religion = raeldaeriach
			
			add_prestige = -100
			add_country_modifier = {
				name = "conversion_zeal"
				duration = 3650
			}
		}
		heretic = { }
	}

	etchings_of_the_deep = {
		icon = 97
		color = { 31 96 83 }
		allowed_conversion = {
		}
		country = {
			prestige_decay = -0.01
			land_attrition = -0.10
		}
		country_as_secondary = {
			prestige_decay = -0.01
		}
		on_convert = {
			change_religion = etchings_of_the_deep
			add_prestige = -100
			add_country_modifier = {
			
				name = "conversion_zeal"
				duration = 3650
			}
		}
		
		heretic = { BLACK_STONE_IDOLATER }
		
	}

	senanset = {
		icon = 95
		color = { 112 201 39 }
		allowed_conversion = {
		}
		country = {
			stability_cost_modifier = -0.1
			leader_land_manuever = 1
		}
		country_as_secondary = {
			leader_land_manuever = 1
		}
		on_convert = {
			change_religion = senanset
			add_prestige = -100
			add_country_modifier = {
			
				name = "conversion_zeal"
				duration = 3650
			}
		}
		
		heretic = { SENIIBONA }
		
	}
	
	harmonized_modifier = harmonized_aelantiri
	
	crusade_name = HOLY_WAR
}

cheshoshi_religion = {

	# can_form_personal_unions = no
	flags_with_emblem_percentage = 33 # default == 0
	flag_emblem_index_range = { 1 57 }
	
	
	death_cult_of_cheshosh = {
		color = { 66 66 66 }
		icon = 61
		allowed_conversion = {
		}
		country = {
			land_morale = 0.1 
			shock_damage = 0.1
		}
		country_as_secondary = {
			land_morale = 0.1 
		}
		
		province = {
			local_missionary_strength = 0.02	#its easy to convert them
		}
		
		on_convert = {
			change_religion = death_cult_of_cheshosh 
			add_prestige = -100
			
			add_country_modifier = {
				name = "conversion_zeal"
				duration = 3650
			}
		}
		
		heretic = { RUINED_GODS }
	}
	
	harmonized_modifier = harmonized_cheshoshi
	
	crusade_name = HOLY_WAR
}

harafe = {
	kalun_masks = {
		color = { 210 20 60 }
		icon = 62
		allowed_conversion = {
		}
		country = {
			production_efficiency = 0.1
			prestige_decay = -0.01
		} 
		country_as_secondary = {
			production_efficiency = 0.1
		}
		
		province = {
			local_missionary_strength = -0.02	#resistant to conversion
		}
		
		on_convert = {
			change_religion = kalun_masks
			add_prestige = -100
			
			add_country_modifier = {
				name = "conversion_zeal"
				duration = 3650
			}
		}
		
		heretic = { BLANK_MASKS }
	}

	harmonized_modifier = harmonized_harafe
	
	crusade_name = HOLY_WAR
}

effelai = {
	tswohvwohii = {
		color = { 32 86 26 }
		icon = 87
		allowed_conversion = {
			chahinanito
			song_servants
		}
		country = {
			prestige_decay = -0.01
			tolerance_heretic = -2
		}
		country_as_secondary = {
			prestige = 0.66
		}
		
		province = {
			local_missionary_strength = -0.02 # Resistant to conversion
		}
		
		on_convert = {
			change_religion = tswohvwohii
			add_prestige = -100
			
			add_country_modifier = {
				name = "conversion_zeal"
				duration = 3650
			}
		}
		
		heretic = {
		
		}
	}
	chahinanito = {
		color = { 90 127 20 }
		icon = 85
		allowed_conversion = {
			tswohvwohii
			song_servants
		}
		country = {
			trade_efficiency = 0.2
			tolerance_heathen = -2
		}
		country_as_secondary = {
			trade_steering = 0.1
		}
		
		province = {
			local_missionary_strength = -0.02 # Resistant to conversion
		}
		
		on_convert = {
			change_religion = chahinanito
			add_prestige = -100
			
			add_country_modifier = {
				name = "conversion_zeal"
				duration = 3650
			}
		}
		
		heretic = {
		
		}
	}
	song_servants = {
		color = { 2 51 0 }
		icon = 31
		allowed_conversion = {
			
		}
		country = {
			garrison_size = 0.15
			land_attrition = -0.1
		}
		country_as_secondary = {
			garrison_size = 0.1
		}
		
		province = {
			local_defensiveness = 0.1
		}
		
		on_convert = {
			change_religion = song_servants
			add_prestige = -100
			
			add_country_modifier = {
				name = "conversion_zeal"
				duration = 3650
			}
		}
		
		heretic = {
		
		}
	}
	orwaii = {
		color = { 206 130 103 }
		icon = 86
		allowed_conversion = {
			
		}
		country = {
			discipline = 0.05
			tolerance_own = 2
		}
		country_as_secondary = {
			discipline = 0.025
		}
		
		province = {
			local_missionary_strength = 0.01 # Easy to convert
		}
		
		on_convert = {
			change_religion = orwaii
			add_prestige = -100
			
			add_country_modifier = {
				name = "conversion_zeal"
				duration = 3650
			}
		}
		
		heretic = {
			
		}
	}

	leechfather = {
		color = { 25 0 51 }
		icon = 84
		allowed_conversion = {
		
		}
		country = {
			global_sailors_modifier = 0.1
			sailors_recovery_speed = 0.1
		}
		country_as_secondary = {
			hostile_attrition = 1
		}
	
		province = {
			local_missionary_strength = 0.01 # Easy to convert
		}
	
		on_convert = {
			change_religion = leechfather
			add_prestige = -100
			
			add_country_modifier = {
				name = "conversion_zeal"
				duration = 3650
			}
		}
		heretic = {
			LEECHMOTHER
		}
	}

	harmonized_modifier = harmonized_effelai
	
	crusade_name = HOLY_WAR
}

taychendi = {
	
	# can_form_personal_unions = no
	flags_with_emblem_percentage = 33 # default == 0
	flag_emblem_index_range = { 1 57 }

	gods_of_the_taychend = {
		color = { 188 181 73 }
		icon = 42
		allowed_conversion = {
		}
		country = {
			advisor_cost = -0.25
			prestige_decay = -0.01
		}
		country_as_secondary = {
			advisor_cost = -0.25
		}
		
		on_convert = {
			change_religion = gods_of_the_taychend 
			add_prestige = -100
			
			add_country_modifier = {
				name = "conversion_zeal"
				duration = 3650
			}
		}
		
		heretic = { NOGOD }
		
		#this should be hindu personal deities
	}
	
	harmonized_modifier = harmonized_taychendi
	
	crusade_name = HOLY_WAR
}

ynnic = {
	
	can_form_personal_unions = yes
	flags_with_emblem_percentage = 33 # default == 0
	flag_emblem_index_range = { 1 57 }

	ynn_river_worship = {
		color = { 139  172  212 }
		icon = 63
		allowed_conversion = {
		}
		country = {
			liberty_desire = -10
			fort_maintenance_modifier = -0.05
		}
		country_as_secondary = {
			reinforce_speed = 0.1
		}
		
		personal_deity = yes
		
		on_convert = {
			change_religion = ynn_river_worship 
			add_prestige = -100
			
			add_country_modifier = {
				name = "conversion_zeal"
				duration = 3650
			}
		}

		authority = yes
		religious_reforms = yes
		reform_tooltip = YRW_REFORM_TOOLTIP
		heretic = { YNN_DAMMIC_CULT }
		
	}

	ynn_river_reformed = {
		color = { 139  172  250 }
		icon = 63
		allowed_conversion = {
		}
		country = {
		}
		country_as_secondary = {
			reinforce_speed = 0.1
		}
		
		personal_deity = yes
		
		on_convert = {
			change_religion = ynn_river_reformed 
			
			
			add_country_modifier = {
				name = "conversion_zeal"
				duration = 3650
			}
		}

		authority = yes
		religious_reforms = yes
		reform_tooltip = YRW_REFORM_TOOLTIP
		heretic = { YNN_DAMMIC_CULT }
		
	}
	
	rune_scribes = {
		color = { 70  66  144 }
		icon = 92
		allowed_conversion = {
		}
		country = {
			tolerance_heathen = 2
			tolerance_heretic = 2
			shock_damage = 0.1
		}
		country_as_secondary = {
			shock_damage = 0.1
		}
		
		on_convert = {
			change_religion = rune_scribes 
			add_prestige = -100
			
			add_country_modifier = {
				name = "conversion_zeal"
				duration = 3650
			}
		}
		
		heretic = { SCARIFICATION }
		
	}
	
	harmonized_modifier = harmonized_ynnic
	
	crusade_name = HOLY_WAR
}

devandi = {

	# can_form_personal_unions = no
	flags_with_emblem_percentage = 33 # default == 0
	flag_emblem_index_range = { 1 57 }
	
	mazhthramazh = {
		color = { 145 180 146 }
		icon = 98
		allowed_conversion = {
		}
		country = {
			development_cost = -0.1
			defensiveness = 0.15
		}
		country_as_secondary = {
			development_cost = -0.1
		}
		
		province = {
		}
		
		on_convert = {
			change_religion = mazhthramazh 
			add_prestige = -100
			
			add_country_modifier = {
				name = "conversion_zeal"
				duration = 3650
			}
		}
		
		heretic = { WAENAEALAZH }
	}
	
	askaeorg = {
		color = { 184 125 65 }
		icon = 96
		allowed_conversion = {
		}
		country = {
			cavalry_shock = 0.25
			idea_cost = -0.1
		}
		country_as_secondary = {
			cavalry_shock = 0.15
		}
		
		province = {
		}
		
		on_convert = {
			change_religion = askaeorg 
			add_prestige = -100
			
			add_country_modifier = {
				name = "conversion_zeal"
				duration = 3650
			}
		}
		
		heretic = { SAERZAERN }
	}
	
	harmonized_modifier = harmonized_devandi
	
	crusade_name = HOLY_WAR
}

fey_religion = {
	# can_form_personal_unions = no
	flags_with_emblem_percentage = 33 # default == 0
	flag_emblem_index_range = { 1 57 }
	
	fey_court = {
		color = { 0 114 187 }
		icon = 88
		country = {
			core_decay_on_your_own = -0.5
			global_unrest = -1
		}
		country_as_secondary = {
			core_decay_on_your_own = -0.5
		}
		
		province = {
			local_monthly_devastation = -0.1
		}
		on_convert = {
			change_religion = fey_court 
			add_prestige = -100
			
			add_country_modifier = {
				name = "conversion_zeal"
				duration = 3650
			}
		}

		uses_piety = yes
		heretic = { CHAOS_WORSHIPPERS }
	}
	eordellon = {
		color = { 253 232 199 }
		icon = 59
		allowed_conversion = {
		
		}
		country = {
			tolerance_own = 1
			development_cost = -0.1
			global_heretic_missionary_strength = 0.015
		}
		country_as_secondary = {
			development_cost = -0.1
		}
		
		on_convert = {
			change_religion = eordellon 
			add_prestige = -100
			
			add_country_modifier = {
				name = "conversion_zeal"
				duration = 3650
			}
		}
		
		uses_piety = yes
		heretic = { 
			LANNANSIT #FeyLover
			ARRFATH
			SARMADFATH
			FOGHARFATH
			GEMRADFATH
		} 
	}
	spring_court = {
		color = { 184 228 80 }
		icon = 55
		allowed_conversion = {
			eordellon
		}
		country = {
			idea_cost = -0.1
			manpower_recovery_speed = 0.1
		}
		country_as_secondary = {
			idea_cost = -0.1
		}
		
		on_convert = {
			change_religion = spring_court
			add_prestige = -100
			
			add_country_modifier = {
				name = "conversion_zeal"
				duration = 3650
			}
		}
		
		uses_piety = yes
		heretic = { 
			LANNANSIT #FeyLover
			SARMADFATH
			FOGHARFATH
			GEMRADFATH
		} 
	}
	summer_court = {
		color = { 245 192 54 }
		icon = 56
		allowed_conversion = {
			eordellon
		}
		country = {
			naval_forcelimit_modifier = 0.25
			production_efficiency = 0.1
		}
		country_as_secondary = {
			navy_tradition = 1
		}
		
		on_convert = {
			change_religion =summer_court
			add_prestige = -100
			
			add_country_modifier = {
				name = "conversion_zeal"
				duration = 3650
			}
		}
		
		uses_piety = yes
		heretic = { 
			LANNANSIT #FeyLover
			ARRFATH
			FOGHARFATH
			GEMRADFATH
		} 
	}
	autumn_court = {
		color = { 249 121 44 }
		icon = 57
		allowed_conversion = {
			eordellon
		}
		country = {
			global_tax_modifier = 0.1
			global_unrest = -1
		}
		country_as_secondary = {
			global_unrest = -1
		}
		
		on_convert = {
			change_religion = autumn_court 
			add_prestige = -100
			
			add_country_modifier = {
				name = "conversion_zeal"
				duration = 3650
			}
		}
		
		uses_piety = yes
		heretic = { 
			LANNANSIT #FeyLover
			ARRFATH
			SARMADFATH
			GEMRADFATH
		} 
	}
	winter_court = {
		color = { 202 244 255 }
		icon = 58
		allowed_conversion = {
			eordellon
		}
		country = {
			global_spy_defence = 0.15
			war_exhaustion = -0.03
		}
		country_as_secondary = {
			global_spy_defence = 0.15
		}
		
		on_convert = {
			change_religion = winter_court 
			add_prestige = -100
			
			add_country_modifier = {
				name = "conversion_zeal"
				duration = 3650
			}
		}
		
		uses_piety = yes
		heretic = { 
			LANNANSIT #FeyLover
			ARRFATH
			SARMADFATH
			FOGHARFATH
		} 
	}
	
	
	ashentree_pact = {
		color = { 80 200 160 }
		icon = 47
		country = {
			tolerance_own = 3
			land_morale = 0.05
			tolerance_heathen = -2
		}
		province = {
			local_missionary_strength = -0.02
		}
		country_as_secondary = {
			tolerance_own = 1
		}
		on_convert = {
			change_religion = ashentree_pact 
			add_prestige = -100
			
			add_country_modifier = {
				name = "conversion_zeal"
				duration = 3650
			}
		}
		uses_piety = yes
		declare_war_in_regency = yes
		heretic = { EVIL_SPIRIT DEMONWORSHIPPERS }
	}
	
	vechnogejzn = {
		color = { 173 55 26 }
		icon = 94
		allowed_conversion = {
		}
		country = {
			land_attrition = -0.10
			leader_land_fire = 1
		}
		country_as_secondary = {
			manpower_recovery_speed = 0.1
		}
		
		on_convert = {
			change_religion = vechnogejzn
			add_prestige = -100
			
			add_country_modifier = {
				name = "conversion_zeal"
				duration = 3650
			}
		}
		
		heretic = { THE_FLAMETAKEN }
		
	}	

	harmonized_modifier = harmonized_fey_religion
	
	crusade_name = HOLY_WAR
}

raheni = {
	# can_form_personal_unions = no
	flags_with_emblem_percentage = 33 # default == 0
	flag_emblem_index_range = { 1 57 }
	
	#Schools
	religious_schools = {
		starry_eye_school = {
			potential_invite_scholar = {
				knows_of_scholar_country_capital_trigger = yes
			}

			# THIS = Nation wanting to invite the scholar, FROM = Nation that follows that school
			can_invite_scholar = {
				adm_power_cost = 50
				NOT = { anb_has_religious_scholars_trigger = yes }
				OR = {
					AND = {
						reverse_has_opinion = { who = FROM value = 150 }
						OR = {
							alliance_with = FROM
							is_subject_of = FROM
							overlord_of = FROM
						}
						hidden_progressive_opinion_for_scholar_trigger = yes
					}
					any_owned_province = {
						has_province_modifier = high_philosophy_school_origin_starry_eye
					}
				}
			}

			# THIS = Nation wanting to invite the scholar, FORM = Nation that sends scholar
			on_invite_scholar = {
				add_adm_power = -50
				clear_religious_scholar_modifiers_effect = yes
				custom_tooltip = INVITE_SCHOLAR_COUNTRY_TEXT
				add_country_modifier = { name = starry_eye_scholar_modifier duration = 7300 }
				hidden_effect = { if = { limit = { has_disaster = rahen_corrupt_court } change_variable = { which = rahen_court_case_strength value = 5 } change_variable = { which = rahen_num_of_invited_scholars value = 1 } } }
			} 

			# If you don't set this it will expand on_invite_scholar effect which might be super big
			invite_scholar_modifier_display = starry_eye_scholar_modifier

			picture = "GFX_icon_high_philosophy_school_starry_eye"

			# religion_sub_modifier = no is possible, will hide icon in religious screen
			idea_cost = -0.1
			advisor_cost = -0.1
		}
		radiant_sun_school = {
			potential_invite_scholar = {
				knows_of_scholar_country_capital_trigger = yes
			}

			# THIS = Nation wanting to invite the scholar, FROM = Nation that follows that school
			can_invite_scholar = {
				adm_power_cost = 50
				NOT = { anb_has_religious_scholars_trigger = yes }
				OR = {
					AND = {
						reverse_has_opinion = { who = FROM value = 150 }
						OR = {
							alliance_with = FROM
							is_subject_of = FROM
							overlord_of = FROM
						}
						hidden_progressive_opinion_for_scholar_trigger = yes
					}
					any_owned_province = {
						has_province_modifier = high_philosophy_school_origin_radiant_sun
					}
				}
			}

			# THIS = Nation wanting to invite the scholar, FORM = Nation that sends scholar
			on_invite_scholar = {
				add_adm_power = -50
				clear_religious_scholar_modifiers_effect = yes
				custom_tooltip = INVITE_SCHOLAR_COUNTRY_TEXT
				add_country_modifier = { name = radiant_sun_scholar_modifier duration = 7300 }
				hidden_effect = { if = { limit = { has_disaster = rahen_corrupt_court } change_variable = { which = rahen_court_case_strength value = 5 } change_variable = { which = rahen_num_of_invited_scholars value = 1 } } }
			} 

			# If you don't set this it will expand on_invite_scholar effect which might be super big
			invite_scholar_modifier_display = radiant_sun_scholar_modifier

			picture = "GFX_icon_high_philosophy_school_radiant_sun"

			# religion_sub_modifier = no is possible, will hide icon in religious screen
			global_manpower_modifier = 0.1
			development_cost = -0.1
		}
		orange_sash_school = {
			potential_invite_scholar = {
				knows_of_scholar_country_capital_trigger = yes
			}

			# THIS = Nation wanting to invite the scholar, FROM = Nation that follows that school
			can_invite_scholar = {
				adm_power_cost = 50
				NOT = { anb_has_religious_scholars_trigger = yes }
				OR = {
					AND = {
						reverse_has_opinion = { who = FROM value = 150 }
						OR = {
							alliance_with = FROM
							is_subject_of = FROM
							overlord_of = FROM
						}
						hidden_progressive_opinion_for_scholar_trigger = yes
					}
					any_owned_province = {
						has_province_modifier = high_philosophy_school_origin_orange_sash
					}
				}
			}

			# THIS = Nation wanting to invite the scholar, FORM = Nation that sends scholar
			on_invite_scholar = {
				add_adm_power = -50
				clear_religious_scholar_modifiers_effect = yes
				custom_tooltip = INVITE_SCHOLAR_COUNTRY_TEXT
				add_country_modifier = { name = orange_sash_scholar_modifier duration = 7300 }
				hidden_effect = { if = { limit = { has_disaster = rahen_corrupt_court } change_variable = { which = rahen_court_case_strength value = 5 } change_variable = { which = rahen_num_of_invited_scholars value = 1 } } }
			} 

			# If you don't set this it will expand on_invite_scholar effect which might be super big
			invite_scholar_modifier_display = orange_sash_scholar_modifier

			picture = "GFX_icon_high_philosophy_school_orange_sash"

			# religion_sub_modifier = no is possible, will hide icon in religious screen
			yearly_corruption = -0.1
			legitimacy = 1
			devotion = 0.5
			republican_tradition = 0.3
		}
		golden_palace_school = {
			potential_invite_scholar = {
				knows_of_scholar_country_capital_trigger = yes
			}

			# THIS = Nation wanting to invite the scholar, FROM = Nation that follows that school
			can_invite_scholar = {
				adm_power_cost = 50
				NOT = { anb_has_religious_scholars_trigger = yes }
				OR = {
					AND = {
						reverse_has_opinion = { who = FROM value = 150 }
						OR = {
							alliance_with = FROM
							is_subject_of = FROM
							overlord_of = FROM
						}
						hidden_progressive_opinion_for_scholar_trigger = yes
					}
					any_owned_province = {
						has_province_modifier = high_philosophy_school_origin_golden_palace
					}
				}
			}

			# THIS = Nation wanting to invite the scholar, FORM = Nation that sends scholar
			on_invite_scholar = {
				add_adm_power = -50
				clear_religious_scholar_modifiers_effect = yes
				custom_tooltip = INVITE_SCHOLAR_COUNTRY_TEXT
				add_country_modifier = { name = golden_palace_scholar_modifier duration = 7300 }
				hidden_effect = { if = { limit = { has_disaster = rahen_corrupt_court } change_variable = { which = rahen_court_case_strength value = 5 } change_variable = { which = rahen_num_of_invited_scholars value = 1 } } }
			} 

			# If you don't set this it will expand on_invite_scholar effect which might be super big
			invite_scholar_modifier_display = golden_palace_scholar_modifier

			picture = "GFX_icon_high_philosophy_school_golden_palace"

			# religion_sub_modifier = no is possible, will hide icon in religious screen
			global_unrest  = -2
			global_tax_modifier = 0.1
		}
		unbroken_claw_school = {
			potential_invite_scholar = {
				knows_of_scholar_country_capital_trigger = yes
			}

			# THIS = Nation wanting to invite the scholar, FROM = Nation that follows that school
			can_invite_scholar = {
				adm_power_cost = 50
				NOT = { anb_has_religious_scholars_trigger = yes }
				OR = {
					AND = {
						reverse_has_opinion = { who = FROM value = 150 }
						OR = {
							alliance_with = FROM
							is_subject_of = FROM
							overlord_of = FROM
						}
						hidden_progressive_opinion_for_scholar_trigger = yes
					}
					any_owned_province = {
						has_province_modifier = high_philosophy_school_origin_unbroken_claw
					}
				}
			}

			# THIS = Nation wanting to invite the scholar, FORM = Nation that sends scholar
			on_invite_scholar = {
				add_adm_power = -50
				clear_religious_scholar_modifiers_effect = yes
				custom_tooltip = INVITE_SCHOLAR_COUNTRY_TEXT
				add_country_modifier = { name = unbroken_claw_scholar_modifier duration = 7300 }
				hidden_effect = { if = { limit = { has_disaster = rahen_corrupt_court } change_variable = { which = rahen_court_case_strength value = 5 } change_variable = { which = rahen_num_of_invited_scholars value = 1 } } }
			} 

			# If you don't set this it will expand on_invite_scholar effect which might be super big
			invite_scholar_modifier_display = unbroken_claw_scholar_modifier

			picture = "GFX_icon_high_philosophy_school_unbroken_claw"

			# religion_sub_modifier = no is possible, will hide icon in religious screen
			shock_damage = 0.10
			war_exhaustion = -0.02
		}
		silk_turban_school = {
			potential_invite_scholar = {
				knows_of_scholar_country_capital_trigger = yes
			}

			# THIS = Nation wanting to invite the scholar, FROM = Nation that follows that school
			can_invite_scholar = {
				adm_power_cost = 50
				NOT = { anb_has_religious_scholars_trigger = yes }
				OR = {
					AND = {
						reverse_has_opinion = { who = FROM value = 150 }
						OR = {
							alliance_with = FROM
							is_subject_of = FROM
							overlord_of = FROM
						}
						hidden_progressive_opinion_for_scholar_trigger = yes
					}
					any_owned_province = {
						has_province_modifier = high_philosophy_school_origin_silk_turban
					}
				}
			}

			# THIS = Nation wanting to invite the scholar, FORM = Nation that sends scholar
			on_invite_scholar = {
				add_adm_power = -50
				clear_religious_scholar_modifiers_effect = yes
				custom_tooltip = INVITE_SCHOLAR_COUNTRY_TEXT
				add_country_modifier = { name = silk_turban_scholar_modifier duration = 7300 }
				hidden_effect = { if = { limit = { has_disaster = rahen_corrupt_court } change_variable = { which = rahen_court_case_strength value = 5 } change_variable = { which = rahen_num_of_invited_scholars value = 1 } } }
			} 

			# If you don't set this it will expand on_invite_scholar effect which might be super big
			invite_scholar_modifier_display = silk_turban_scholar_modifier

			picture = "GFX_icon_high_philosophy_school_silk_turban"

			# religion_sub_modifier = no is possible, will hide icon in religious screen
			trade_efficiency = 0.1
			merchants = 1
		}
		ascendant_soul_school = {
			potential_invite_scholar = {
				knows_of_scholar_country_capital_trigger = yes
			}

			# THIS = Nation wanting to invite the scholar, FROM = Nation that follows that school
			can_invite_scholar = {
				adm_power_cost = 50
				NOT = { anb_has_religious_scholars_trigger = yes }
				OR = {
					AND = {
						reverse_has_opinion = { who = FROM value = 150 }
						OR = {
							alliance_with = FROM
							is_subject_of = FROM
							overlord_of = FROM
						}
						hidden_progressive_opinion_for_scholar_trigger = yes
					}
					any_owned_province = {
						has_province_modifier = high_philosophy_school_origin_ascendant_soul
					}
				}
			}

			# THIS = Nation wanting to invite the scholar, FORM = Nation that sends scholar
			on_invite_scholar = {
				add_adm_power = -50
				clear_religious_scholar_modifiers_effect = yes
				custom_tooltip = INVITE_SCHOLAR_COUNTRY_TEXT
				add_country_modifier = { name = ascendant_soul_scholar_modifier duration = 7300 }
				hidden_effect = { if = { limit = { has_disaster = rahen_corrupt_court } change_variable = { which = rahen_court_case_strength value = 5 } change_variable = { which = rahen_num_of_invited_scholars value = 1 } } }
			} 

			# If you don't set this it will expand on_invite_scholar effect which might be super big
			invite_scholar_modifier_display = ascendant_soul_scholar_modifier

			picture = "GFX_icon_high_philosophy_school_ascendant_soul"

			# religion_sub_modifier = no is possible, will hide icon in religious screen
			country_admin_power = 1
			army_tradition = 0.5
		}
		true_school = {
			potential_invite_scholar = {
				knows_of_scholar_country_capital_trigger = yes
			}

			# THIS = Nation wanting to invite the scholar, FROM = Nation that follows that school
			can_invite_scholar = {
				adm_power_cost = 50
				NOT = { anb_has_religious_scholars_trigger = yes }
				OR = {
					AND = {
						reverse_has_opinion = { who = FROM value = 150 }
						OR = {
							alliance_with = FROM
							is_subject_of = FROM
							overlord_of = FROM
						}
						hidden_progressive_opinion_for_scholar_trigger = yes
					}
					any_owned_province = {
						has_province_modifier = high_philosophy_school_origin_true_school
					}
				}
			}

			# THIS = Nation wanting to invite the scholar, FORM = Nation that sends scholar
			on_invite_scholar = {
				add_adm_power = -50
				clear_religious_scholar_modifiers_effect = yes
				custom_tooltip = INVITE_SCHOLAR_COUNTRY_TEXT
				add_country_modifier = { name = true_school_scholar_modifier duration = 7300 }
				hidden_effect = { if = { limit = { has_disaster = rahen_corrupt_court } change_variable = { which = rahen_court_case_strength value = 5 } change_variable = { which = rahen_num_of_invited_scholars value = 1 } } }
			} 

			# If you don't set this it will expand on_invite_scholar effect which might be super big
			invite_scholar_modifier_display = true_school_scholar_modifier

			picture = "GFX_icon_high_philosophy_school_true_school"

			# religion_sub_modifier = no is possible, will hide icon in religious screen
			prestige = 1
			technology_cost = -0.05
		}
	}
	high_philosophy = {
		color = { 73 9 96 }
		icon = 32
		allowed_conversion = {
		}
		country = {
			reform_progress_growth = 0.1
			stability_cost_modifier = -0.2
		}
		country_as_secondary = {
			stability_cost_modifier = -0.2
		}
		
		province = {
			local_missionary_strength = -0.01	#its harder to convert them
		}
		
		on_convert = {
			change_religion = high_philosophy 
			add_prestige = -100
			
			add_country_modifier = {
				name = "conversion_zeal"
				duration = 3650
			}
		}
		
		heretic = { RAHENI_GODS }
	}
	suhans_praxis = {
		color = { 193 105 228 }
		icon = 75
	allowed_conversion = {
		high_philosophy
	}
	country = {
		infantry_power = 0.10
		global_heretic_missionary_strength = 0.04
	}
	country_as_secondary = {
		infantry_power = 0.10
	}
	
	province = {
		local_missionary_strength = -0.02    #its harder to convert them
	}
	
	on_convert = {
		change_religion = suhans_praxis
		add_prestige = -100

		set_religious_school = {
			group = raheni
			school = true_school
			}
	    
		add_country_modifier = {
			name = "conversion_zeal"
			duration = 3650
			}
		}
	}
	harmonized_modifier = harmonized_raheni
	
	crusade_name = HOLY_WAR
}

halessi = {
	
	# can_form_personal_unions = no
	flags_with_emblem_percentage = 33 # default == 0
	flag_emblem_index_range = { 1 57 }

	righteous_path = {
		color = { 222  222  222 }
		icon = 70
		allowed_conversion = {
			#lefthand_path
		}
		country = {
			army_tradition = 0.5
			global_tax_modifier = 0.1
		}
		country_as_secondary = {
			reinforce_speed = 0.1
			global_tax_modifier = 0.1
		}
		
		uses_church_power = yes				# Uses church power/aspect mechanics
		aspects = {
			wandering_warriors 
			leadership_of_martial_heroes
			romanticize_our_feats
			organize_the_sects
			martial_arts_for_the_peasantry
			meditation_through_farming
			preserve_the_secret_world
			trial_by_combat
			karmic_code
			matchlock_monks
			teachings_of_balris
			elixirs_of_knowledge
			temple_communities			
			meditation_and_tea
			vow_of_poverty
			kobold_house_pets
			remembrance_festivals
			equal_inheritance
			guardians_after_death
			spirit_influenced_crafts
			honsai_the_ghostemperor
		}
		aspects_name = RIGHTEOUS_PATH_ASPECTS
		
		on_convert = {
			change_religion = righteous_path 
			add_prestige = -100
			
			add_country_modifier = {
				name = "conversion_zeal"
				duration = 3650
			}
		}
		
		heretic = { FORBIDDEN_PATH }
		
	}
	
	lefthand_path = {
		color = { 57  57  57 }
		icon = 68
		allowed_conversion = {
			#righteous_path
		}
		country = {
			army_tradition_decay = -0.01
			shock_damage = 0.1
		}
		country_as_secondary = {
			reinforce_speed = 0.1
			shock_damage = 0.1
		}
		
		province = {
			local_missionary_strength = -0.01	#its harder to convert them
		}
		
		uses_church_power = yes				# Uses church power/aspect mechanics
		aspects = {
			expand_the_dark_world 
			gunpowder_meditation 
			demon_warriors
			barter_with_dark_spirits
			wisdom_beyond_honor
			advocation_of_chi_stealers
			mummy_monks
			way_of_the_shadows
			organize_the_cults
			witches_and_shamans
		}
		aspects_name = RIGHTEOUS_PATH_ASPECTS
		
		on_convert = {
			change_religion = lefthand_path 
			add_prestige = -100
			
			add_country_modifier = {
				name = "conversion_zeal"
				duration = 3650
			}
		}
		
		heretic = { ONI_DISSIDENTS }
		
	}
	
	mystic_accord = {
		color = { 124 244 254 }
		icon = 89
		misguided_heretic = yes	
		allowed_conversion = {
			#righteous_path
		}
		country = {
			global_trade_goods_size_modifier = 0.05
			stability_cost_modifier = -0.15
		}
		country_as_secondary = {
			global_trade_goods_size_modifier = 0.05
		}
		
		uses_judaism_power = yes
		aspects_name = JEWISH_ASPECTS
			
		aspects = {
			hebat_daga_aspect
			hebat_tana_aspect
			hebat_mahar_aspect
			hebat_linga_aspect
			cinulau_dip_aspect
			lupulan_dip_aspect
			semat_tidakhui_dip_aspect
			kharunyana_dip_aspect
			phokhao_dip_aspect
			gehet_ketine_dip_aspect
			hokuma_dip_aspect
			marutha_dip_aspect
			hukai_dip_aspect
			telebei_dip_aspect
			yanhe_dip_aspect
			huszien_dip_aspect
			hujan_dip_aspect
			hengda_dip_aspect
			tughayasa_dip_aspect
			dhenbasana_dip_aspect
			cinulau_mil_aspect
			lupulan_mil_aspect
			semat_tidakhui_mil_aspect
			kharunyana_mil_aspect
			phokhao_mil_aspect
			gehet_ketine_mil_aspect
			hokuma_mil_aspect
			marutha_mil_aspect
			hukai_mil_aspect
			telebei_mil_aspect
			yanhe_mil_aspect
			huszien_mil_aspect
			hujan_mil_aspect
			hengda_mil_aspect
			tughayasa_mil_aspect
			dhenbasana_mil_aspect
		}
		
		heretic = { SAMARITAN KARAITE }

		celebrate = {
			cost = 200
			potential = {
			}
			allow = {
				if = {
					limit = {
						has_church_aspect = hebat_daga_aspect
					}
					OR = {
						has_church_aspect = cinulau_dip_aspect
						has_church_aspect = lupulan_dip_aspect
						has_church_aspect = semat_tidakhui_dip_aspect
						has_church_aspect = kharunyana_dip_aspect
					}
					OR = {
						has_church_aspect = cinulau_mil_aspect
						has_church_aspect = lupulan_mil_aspect
						has_church_aspect = semat_tidakhui_mil_aspect
						has_church_aspect = kharunyana_mil_aspect
					}
				}
				else_if = {
					limit = {
						has_church_aspect = hebat_tana_aspect
					}
					OR = {
						has_church_aspect = phokhao_dip_aspect
						has_church_aspect = gehet_ketine_dip_aspect
						has_church_aspect = hokuma_dip_aspect
						has_church_aspect = marutha_dip_aspect
					}
					OR = {
						has_church_aspect = phokhao_mil_aspect
						has_church_aspect = gehet_ketine_mil_aspect
						has_church_aspect = hokuma_mil_aspect
						has_church_aspect = marutha_mil_aspect
					}
				}
				else_if = {
					limit = {
						has_church_aspect = hebat_mahar_aspect
					}
					OR = {
						has_church_aspect = hukai_dip_aspect
						has_church_aspect = telebei_dip_aspect
						has_church_aspect = yanhe_dip_aspect
						has_church_aspect = huszien_dip_aspect
					}
					OR = {
						has_church_aspect = hukai_mil_aspect
						has_church_aspect = telebei_mil_aspect
						has_church_aspect = yanhe_mil_aspect
						has_church_aspect = huszien_mil_aspect
					}
				}
				else_if = {
					limit = {
						has_church_aspect = hebat_linga_aspect
					}
					OR = {
						has_church_aspect = hujan_dip_aspect
						has_church_aspect = hengda_dip_aspect
						has_church_aspect = tughayasa_dip_aspect
						has_church_aspect = dhenbasana_dip_aspect
					}
					OR = {
						has_church_aspect = hujan_mil_aspect
						has_church_aspect = hengda_mil_aspect
						has_church_aspect = tughayasa_mil_aspect
						has_church_aspect = dhenbasana_mil_aspect
					}
				}
				else = {
					hidden_trigger = { always = no }
				}
			}
			effect = {
				if = {
					limit = {
						has_church_aspect = hebat_daga_aspect
					}
					add_years_of_income = 1.0
					every_owned_province = {
						if = {
							limit = {
								OR = {
									has_shipyard_building_trigger = yes
									has_dock_building_trigger = yes
								}
							}
							random = {
								chance = 50
								add_base_production = 1
							}
						}
						if = {
							limit = {
								base_production = 10
							}
							add_province_modifier = {
								name = hebat_daga_blessing
								duration = 7300
							}
						}
					}
				}
				else_if = {
					limit = {
						has_church_aspect = hebat_tana_aspect
					}
					add_yearly_manpower = 2.0
					every_owned_province = {
						if = {
							limit = {
								OR = {
									has_manpower_building_trigger = yes
									has_forcelimit_building_trigger = yes
								}
							}
							random = {
								chance = 33
								add_base_manpower = 1
							}
						}
					}
					add_country_modifier = {
						name = hebat_tana_blessing
						duration = 7300
					}
				}
				else_if = {
					limit = {
						has_church_aspect = hebat_mahar_aspect
					}
					change_government_reform_progress = 30
					add_legitimacy = 10
					add_republican_tradition = 5
					add_devotion = 10
					add_heir_claim = 10
					every_owned_province = {
						add_local_autonomy = -25
					}
				}
				else_if = {
					limit = {
						has_church_aspect = hebat_linga_aspect
					}
					every_owned_province = {
						if = {
							limit = { has_tax_building_trigger = yes }
							random = {
								chance = 33
								add_base_tax = 1
							}
						}
					}
					add_stability = 1
					every_known_country = {
						if = {
							limit = {
								OR = {
									religion = righteous_path
									religion = lefthand_path
									religion = bangujonsi
									religion = saanorgegh
								}
							}
							ROOT = {
								reverse_add_opinion = {
									who = PREV
									modifier = happy_heretic
								}
							}
						}
					}
					every_owned_province = {
						add_devastation = -100
					}
				}
			}
			ai_will_do = {
				factor = 15
			}
		}
		
		province = {
			local_monthly_devastation = -0.1
			local_missionary_strength = 0.01
		}
		on_convert = { 
			change_religion = mystic_accord
			add_prestige = -100
		
			add_country_modifier = {
				name = "conversion_zeal"
				duration = 3650
			}
		}
		
		heretic = { THE_SEALED_ONES }
		
	}
	
	bangujonsi = {
		color = { 67 179 105 }
		icon = 67
		country = {
			stability_cost_modifier = -0.2
			global_unrest = -1
		}
		country_as_secondary = {
			stability_cost_modifier = -0.1
			global_unrest = -1
		}
		
		province = {
			local_missionary_strength = -0.02	#its harder to convert them 
		}
		
		on_convert = {
			change_religion = bangujonsi 
			add_prestige = -100
			
			add_country_modifier = {
				name = "conversion_zeal"
				duration = 3650
			}
		}
		
		heretic = { DARK_SHAMANS }
		
	}
	
	saanorgegh = {
		icon = 69
		color = { 95 100 120 }
		country = {
			cavalry_shock = 0.25
			available_province_loot = 0.5
		}
		personal_deity = yes
		
		country_as_secondary = {
			cavalry_shock = 0.10
			available_province_loot = 0.2
		}
		
		on_convert = {
			change_religion = saanorgegh 
			add_prestige = -100
			
			add_country_modifier = {
				name = "conversion_zeal"
				duration = 3650
			}
		}
		
		heretic = { FACE_STEALERS }
	}
	
	levaajan = {
		color = { 116 166 179 }
		icon = 91
		allowed_conversion = {
			umun_omi
		}
		country = {
			stability_cost_modifier = -0.15
			defensiveness = 0.1
		}

		country_as_secondary = {
			stability_cost_modifier = -0.15
		}

		province = {
			local_missionary_strength = 0.02
		}

		on_convert = {
			change_religion = levaajan
			add_prestige = -100

		add_country_modifier = {
				name = "conversion_zeal"
				duration = 3650
			}
		}

		heretic = { THE_ETERNAL_WORSHIP }
	}
	
	umun_omi = {
		color = { 0 63 63 }
		icon = 99
		allowed_conversion = {
			levaajan
		}
		country = {
			land_attrition = -0.2
			shock_damage = 0.1
		}
		country_as_secondary = {
			land_attrition = -0.2
		}

		province = {
			local_missionary_strength = 0.02
		}

		on_convert = {
			change_religion = umun_omi
			add_prestige = -100

		add_country_modifier = {
				name = "conversion_zeal"
				duration = 3650
			}
		}

		heretic = { SERVANTS_OF_THE_ENTITY }
	}
	
	harmonized_modifier = harmonized_halessi
	
	crusade_name = HOLY_WAR
}

triunic_lake = {
	# can_form_personal_unions = no
	flags_with_emblem_percentage = 33 # default == 0
	flag_emblem_index_range = { 1 57 }
	
	kodave_followers = {	#Warrior Goddess
		color = { 235 88 48 }
		icon = 51
		misguided_heretic = yes
		country = {
			infantry_power = 0.1
			tolerance_heathen = -2
		}
		country_as_secondary = {
			infantry_power = 0.1
		}
		
		province = {
			garrison_growth = 0.1
			local_defensiveness = 0.1
		}
		on_convert = {
			change_religion = kodave_followers 
			add_prestige = -100
			
			add_country_modifier = {
				name = "conversion_zeal"
				duration = 3650
			}
		}
		
		heretic = { OGTOCHODSAKS }
	}
	
	yukel_followers = {	#Mother Goddess
		color = { 160 160 160 }
		icon = 50
		misguided_heretic = yes
		country = {
			trade_efficiency = 0.1
			tolerance_heretic = 2
		}
		country_as_secondary = {
			trade_efficiency = 0.1
		}
		
		province = {
			trade_value_modifier = 0.1
		}
		on_convert = {
			change_religion = yukel_followers 
			add_prestige = -100
			
			add_country_modifier = {
				name = "conversion_zeal"
				duration = 3650
			}
		}
		
		heretic = { OGTOCHODSAKS }
	}
	
	enuuk_followers = {	#Trade Goddess
		color = { 225 181 55 }
		icon = 52
		misguided_heretic = yes
		country = {
			production_efficiency = 0.1
		}
		country_as_secondary = {
			production_efficiency = 0.1
		}
		
		province = {
			local_development_cost = -0.1
		}
		on_convert = {
			change_religion = enuuk_followers 
			add_prestige = -100
			
			add_country_modifier = {
				name = "conversion_zeal"
				duration = 3650
			}
		}
		
		heretic = { OGTOCHODSAKS }
	}
	
	kalyin_worshippers = {	
		color = { 100 127 200 }
		icon = 53
		country = {
			global_trade_goods_size_modifier = 0.1
			infantry_power = 0.05
			tolerance_heretic = -2
		}
		country_as_secondary = {
			global_trade_goods_size_modifier = 0.1
		}
		
		province = {
			trade_value_modifier = 0.1
		}
		on_convert = {
			change_religion = kalyin_worshippers 
			add_prestige = -100
			
			add_country_modifier = {
				name = "conversion_zeal"
				duration = 3650
			}
		}
		
		heretic = { OGTOCHODSAKS }
	}
	
	harmonized_modifier = harmonized_triunic
	
	crusade_name = HOLY_WAR
	
	kukatodic_religion = {
		color = { 196 255 222 }
		icon = 73
		allowed_conversion = {
			
		}
		country = {
			global_unrest = -2
			tolerance_heathen = 2
		}
		country_as_secondary = {
			tolerance_heathen = 2
		}
		
		province = {
			local_hostile_attrition = 1
		}
		
		on_convert = {
			change_religion = kukatodic_religion
			add_prestige = -100
			
			add_country_modifier = {
				name = "conversion_zeal"
				duration = 3650
			}
		}
		
		heretic = {
		
		}
	}
}

giantkin = {

	# can_form_personal_unions = no
	flags_with_emblem_percentage = 33 # default == 0
	flag_emblem_index_range = { 1 57 }

	feast_of_the_gods = {
		color = { 120 127 89 }
		icon = 66
		allowed_conversion = {
		}
		country = {
			prestige_from_land = 0.3
			global_manpower_modifier = 0.1
		}
		country_as_secondary = {
			prestige_from_land = 0.25
		}
		
		province = {
			supply_limit_modifier = 0.15
		}
		
		on_convert = {
			change_religion = feast_of_the_gods
			add_prestige = -100
			
			add_country_modifier = {
				name = "conversion_zeal"
				duration = 3650
			}
		}
		
		heretic = { CHAOS_WORSHIPPERS }
	}
	
	mountain_watchers = {
		color = { 41 41 77 }
		icon = 65
		allowed_conversion = {
		}
		country = {
			movement_speed = 0.10
			defensiveness = 0.15
		}
		country_as_secondary = {
			movement_speed = 0.075
			defensiveness = 0.05
		}
		
		province = {
			local_hostile_attrition = 1
		}
		holy_sites = { 995 985 740 4208 5323 }

		blessings = {
			blessing_jormir
			blessing_ofanttlir
			blessing_kranmas
			blessing_valerid
			blessing_balmir
		}
		on_convert = {
			change_religion = mountain_watchers
			add_prestige = -100
			
			add_country_modifier = {
				name = "conversion_zeal"
				duration = 3650
			}
		}
		
		heretic = { CHAOS_WORSHIPPERS }
	}	
	harmonized_modifier = harmonized_giantkin
	
	crusade_name = HOLY_WAR
}

centaur_religion = {
	# can_form_personal_unions = no
	flags_with_emblem_percentage = 33 # default == 0
	flag_emblem_index_range = { 1 57 }
	
	ik_magthaal = {	#Corrupted Great Prairie in Mongolian
		color = { 60 40 20 }
		icon = 54
		country = {
			cavalry_shock = 0.25
			horde_unity = 1
		}
		country_as_secondary = {
			cavalry_shock = 0.25
		}
		
		on_convert = {
			change_religion = ik_magthaal 
			add_prestige = -100
			
			add_country_modifier = {
				name = "conversion_zeal"
				duration = 3650
			}
		}

		heretic = { CHAOS_WORSHIPPERS }
	}
	
	harmonized_modifier = harmonized_fey_religion
	
	crusade_name = HOLY_WAR
}

infernal_religion = {
	flags_with_emblem_percentage = 33 # default == 0
	flag_emblem_index_range = { 1 57 }
	
	center_of_religion = 750 #Cannwic i.e. former Agrador
	
	infernal_court = {	#Devil Worship, distinct from and mildly opposed to demons
		color = { 218  165  32 }
		icon = 93
		country = {
			tolerance_own = 2
			warscore_cost_vs_other_religion = -0.15
		}
		country_as_secondary = {
			warscore_cost_vs_other_religion = -0.15
		}
		personal_deity = yes
		on_convert = {
			change_religion = infernal_court
			add_prestige = -100
			
			add_country_modifier = {
				name = "conversion_zeal"
				duration = 3650
			}
		}

		heretic = { AGRADOSIAN_ELECT DEMONWORSHIPPERS }
	}
	
	harmonized_modifier = harmonized_infernal
	
	crusade_name = HOLY_WAR
}