jiangdu1 = {
	slot = 1
	generic = no 
	ai = yes 
	has_country_shield = yes 
	potential = {
		tag = Y13
	}
	
	jiangdu_koboldz = {
		icon = mission_build_up_to_force_limit
		position = 3 
		required_missions = { jiangdu_new_beginning }
				
		provinces_to_highlight = {
			OR = {
				area = balrijin_area
			}
			NOT = { country_or_non_sovereign_subject_holds = ROOT }
		} 
		
		trigger = {
			balrijin_area = {
				type = all
				owned_by = ROOT
			}
			treasury = 50
		}
		
		effect = {
			4976 = {
				add_permanent_province_modifier = {
					name = jiangdu_northern_fortress
					duration = -1
				}
				add_building_construction = {
					building = fort_15th 
					speed = 1.5
					cost = 0.25
				}
			}
			add_prestige = 15	
		}	
	}
	
	jiangdu_tolerant_society = { 
		icon = mission_scholar_officials
		position = 4 
		required_missions = { jiangdu_koboldz }
		
		trigger = {
			accepted_culture = goldscale_kobold
			NOT = { unrest = 0 }
			stability = 1
		}
		
		effect = {
			add_country_modifier = {
				name = jiangdu_tolerancy 
				duration = -1
			}
		}
	}
		
	jiangdu_northern_legion = { 
		icon = mission_manchu_warrior
		position = 5 
		required_missions = { jiangdu_tolerant_society 
		}
		trigger = {
			treasury = 200
			mil_power = 100
			NOT = { unrest = 0 }
		}
		
		effect = {
			set_country_flag = jiangdu_northern_legion_flag
			add_mil_power = -100
			custom_tooltip = jiangdu_northern_legion_tt
			shuvuushudi_region = {
				limit = {
					NOT = { is_core = ROOT }
					NOT = { owned_by = ROOT }
				}
				add_permanent_claim = ROOT
			}
			add_treasury = -200
		}	
	}
			
	jiangdu_consolidate_north = {
		icon = mission_chinese_general_riding
		position = 6 
		required_missions = { jiangdu_northern_legion }
		
		trigger = {
			num_of_generals = 3 
			army_tradition = 50
			army_size = 30 
			manpower_percentage = 0.5
		}
			
		effect = {
			jinqiu_area = {
				limit = {
					NOT = { is_core = ROOT }
					NOT = { owned_by = ROOT }
				}
				add_permanent_claim = ROOT
			}
		}
	}
		
	jiangdu_end_northern = {
		icon = mission_asian_cannon
		position = 10
		required_missions = { jiangdu_consolidate_north }
			
		provinces_to_highlight = {
			OR = {
				area = jinqiu_area 
				region = shuvuushudi_region
			}
			NOT = { country_or_non_sovereign_subject_holds = ROOT }
		} 
			
		trigger = {
			jinqiu_area = {
				type = all
				owned_by = ROOT
				is_core = ROOT
			}
			shuvuushudi_region = {
				type = all
				owned_by = ROOT
				is_core = ROOT
			}
		}
			
		effect = {
			add_prestige = 80 
			odheongu_region = {
				limit = {
					NOT = { is_core = ROOT }
					NOT = { owned_by = ROOT }
				}
				add_permanent_claim = ROOT
			}
			add_power_projection = {
				type = mission_rewards_power_projection
				amount = 50
			}
		}
	}		
}
			
			
jiangdu2 = {
	slot = 2
	generic = no 
	ai = yes 
	has_country_shield = yes 
	potential = {
		tag = Y13
	}
	
	jiangdu_no_same_mistake = {
		icon = mission_steppe_warriors
		position = 3 
		required_missions = { jiangdu_new_beginning
		}
		
		trigger = {
			mil_power = 150 
			army_size_percentage = 1 
			dip_power = 50 
		}
		
		effect = {
			add_country_modifier = {
				name = jiangdu_crash_the_rebels
				duration = -1
			}
			add_mil_power = -150 
			add_dip_power = -50
		}
	}
	
	jiangdu_first_command_city = {
		icon = mission_asian_city
		position = 4 
		required_missions = { jiangdu_crash_rebels }
		
		provinces_to_highlight = {
			OR = {
				province_id = 4868
			}
			NOT = {
				4868 = {
					development = 35 
				}
			}
		}
		
		trigger = {
			4868 = {
				development = 35 
			}
			treasury = 50 
		}
			
		effect = {
			country_event = {
				id = jiangdu.4
			}
			jinjiang_area = {
				limit = {
					NOT = { is_core = ROOT }
					NOT = { owned_by = ROOT }
				}
				add_permanent_claim = ROOT
			}
			jianzhong_area = {
				limit = {
					NOT = { is_core = ROOT }
					NOT = { owned_by = ROOT }
				}
				add_permanent_claim = ROOT
			}
			beikyuan_area = {
				limit = {
					NOT = { is_core = ROOT }
					NOT = { owned_by = ROOT }
				}
				add_permanent_claim = ROOT
			}
			4871 = {
				add_permanent_claim = ROOT
			}
			add_treasury = -50
		}
	}
		
	jiangdu_control_river = {
		icon = mission_asian_trader
		position = 5 
		required_missions = { jiangdu_first_command_city }
			
		provinces_to_highlight = {
			OR = {
				area = jinjiang_area
				province_id = 4871
			}
			NOT = { country_or_non_sovereign_subject_holds = ROOT }
		}	 
			
		trigger = { 
			jinjiang_area = {
				type = all
				owned_by = ROOT
				is_core = ROOT
			}	
			4871 = {
				owned_by = ROOT
				is_core = ROOT
			}
		}
			
		effect = {
			add_prestige = 20	
			jinjiang_area = {
				add_local_autonomy = -20
			}		
			4871 = {
				add_local_autonomy = -20
			}
		}
	}
			
	jiangdu_continue_marsh = {
		icon = mission_conquer_rajputana
		position = 6 
		required_missions = { jiangdu_control_river }
			
		provinces_to_highlight = {
			OR = {
				area = jianzhong_area
				area = beikyuan_area
			}
			NOT = { country_or_non_sovereign_subject_holds = ROOT }
		} 
			
		trigger = {
			jianzhong_area = {
				type = all
				owned_by = ROOT
				is_core = ROOT
			}
			beikyuan_area = {
				type = all
				owned_by = ROOT
				is_core = ROOT
			}
			adm_power = 100
		}
				
		effect = {
			4871 = {
				add_permanent_province_modifier = {
					name = jiangdu_command_city
					duration = -1 
				}
			}
			yanzhong_area = {
				limit = {
					NOT = { is_core = ROOT }
					NOT = { owned_by = ROOT }
				}
				add_permanent_claim = ROOT
			}
			beidugang_area = {
				limit = {
					NOT = { is_core = ROOT }
					NOT = { owned_by = ROOT }
				}
				add_permanent_claim = ROOT
			}
			tianlou_area = {
				limit = {
					NOT = { is_core = ROOT }
					NOT = { owned_by = ROOT }
				}
				add_permanent_claim = ROOT
			}
			mulim_area = {
				limit = {
					NOT = { is_core = ROOT }
					NOT = { owned_by = ROOT }
				}
				add_permanent_claim = ROOT
			}
			linyuan_area = {
				limit = {
					NOT = { is_core = ROOT }
					NOT = { owned_by = ROOT }
				}
				add_permanent_claim = ROOT
			}
			linghui_area = {
				limit = {
					NOT = { is_core = ROOT }
					NOT = { owned_by = ROOT }
				}
				add_permanent_claim = ROOT
			}
			add_adm_power = -100
		}
	}
		
	jiangdu_tianlou_city = {
		icon = mission_temple_patronage
		position = 7
		required_missions = { jiangdu_continue_marsh }
		
		trigger = { 
			4871 = {
				has_trade_building_trigger = yes
				has_courthouse_building_trigger = yes 
				local_autonomy = 0
			}
			treasury = 200
		}
				
		effect = { 
			4871 = {
				add_permanent_province_modifier = {
					name =	jiangdu_tianlou_golden
					duration = -1
				}
			}
		}
	}
	
	jiangdu_cloths_of_szicheng = {
		icon = mission_expand_textile_industry
		position = 10 
		required_missions = { jiangdu_crashing_enemies }
			
		trigger = {
			4846 = {
				development = 30
				has_production_building_trigger = yes
			}
		}
			
		effect = {
			4846 = {
				add_permanent_province_modifier = {
					name = jiangdu_cloths_of_szicheng
					duration = -1
				}
			}
		}
	}
}		
	

jiangdu3 = {
	slot = 3 
	generic = no 
	ai = yes 
	has_country_shield = yes 
	potential = {
		tag = Y13
	}

	jiangdu_create_reconquest_army = {
	    	icon = mission_assemble_an_army
		position = 1 
		
		trigger = {
			army_size_percentage = 1 
		}
		
		effect = {
			add_country_modifier = {
				name = jiangdu_reconquest_army
				duration = 5475
			}
		}
	}


  	jiangdu_new_beginning = {
		icon = mission_burning_castle 
		position = 2
		required_missions = {
			jiangdu_create_reconquest_army
		}
		
		provinces_to_highlight = {
				OR = {
					area = erluxi_area
					area = ningxiang_area
					area = liuminxiang_area
				}
				NOT = { country_or_non_sovereign_subject_holds = ROOT }
		}
			
		trigger = {
			erluxi_area = {
				type = all
				country_or_non_sovereign_subject_holds = ROOT
			}
			ningxiang_area = {
				type = all
				country_or_non_sovereign_subject_holds = ROOT
			}
			liuminxiang_area = {
				type = all
				country_or_non_sovereign_subject_holds = ROOT
			}
		}
		effect = {
			country_event = { 
				id = jiangdu.1
			}
			balrijin_area = {
				limit = {
					NOT = { is_core = ROOT }
					NOT = { owned_by = ROOT }
				}
				add_permanent_claim = ROOT
			}
			add_country_modifier = {
				name = jiangdu_new_beginning
				duration = 5475
			}
		}
	}
		
	jiangdu_crash_rebels = {
		icon = mission_impaled_soldies 
		position = 3
		required_missions = { jiangdu_new_beginning
		}
		
		trigger = { 
			army_size = 14
		}
		
		effect = {
			country_event = { 
				id = jiangdu.2
			}
		}
	}
		
	jiangdu_recruit_army_leaders = {
		icon = mission_swear_fealty_knight 
		position = 4 
		required_missions = { jiangdu_crash_rebels
		}
			
		trigger = {
			mil_power = 200
			army_size = 20 
		}
		effect = {
			define_general = {
				name = "Jian Hangzu"
				fire = 4
				shock = 4
				manuever = 3
				siege = 2
			}
			add_mil_power = -200
		}
	}
	
	jiangdu_city_yanzhong = {
		icon = mission_early_game_buildings
		position = 7 
		required_missions = { jiangdu_continue_marsh }
		
		provinces_to_highlight = {
			OR = {
				area = yanzhong_area 
				area = linyuan_area
				province_id = 4859
			}
			NOT = { country_or_non_sovereign_subject_holds = ROOT }
		}
			
		trigger = { 
			yanzhong_area = {
				type = all
				owned_by = ROOT
				is_core = ROOT
			}
			linyuan_area = {
				type = all
				owned_by = ROOT
				is_core = ROOT
			}
			4859 = {
				is_core = ROOT
				owned_by = ROOT
				development = 35 
			}
			adm_power = 100
		}
			
		effect = {
			4859 = { 
				add_permanent_province_modifier = {
					name = jiangdu_command_city
					duration = -1
				}
			}
			tianszi_area = {
				limit = {
					NOT = { is_core = ROOT }
					NOT = { owned_by = ROOT }
				}
				add_permanent_claim = ROOT
			}
			anjiang_area = {
				limit = {
					NOT = { is_core = ROOT }
					NOT = { owned_by = ROOT }
				}
				add_permanent_claim = ROOT
			}
			add_adm_power = -100
		}
	}
			
	jiangdu_sight_of_winners = {
		icon = mission_conquer_50_development
		position = 8
		required_missions = { jiangdu_city_yanzhong }
			
		provinces_to_highlight = {
			OR = {
				area = anjiang_area 
				area = tianszi_area 
			}
			NOT = { country_or_non_sovereign_subject_holds = ROOT }
		}
					
			
		trigger = {
			anjiang_area = {
				type = all
				owned_by = ROOT
				is_core = ROOT 
			}
			tianszi_area = {
				type = all
				owned_by = ROOT
				is_core = ROOT 
			}
			treasury = 200
			NOT = { unrest = 0 }
		}
			
		effect = { 
			jiangszun_area = {
				limit = {
					NOT = { is_core = ROOT }
					NOT = { owned_by = ROOT }
				}
				add_permanent_claim = ROOT
			}	
			bianfang_area = {
				limit = {
					NOT = { is_core = ROOT }
					NOT = { owned_by = ROOT }
				}
				add_permanent_claim = ROOT
			}
			add_treasury = -200
		}
	}
			
	jiangdu_crashing_enemies = { 
		icon = mission_conquer_5_states 
		position = 9
		required_missions = { jiangdu_sight_of_winners }
			
		provinces_to_highlight = {
			OR = {
				area = jiangszun_area
				area = bianfang_area
			}
			NOT = { country_or_non_sovereign_subject_holds = ROOT }
		}
			
		trigger = {
			jiangszun_area = {
				type = all
				owned_by = ROOT
				is_core = ROOT
			}
			bianfang_area = {
				type = all
				owned_by = ROOT
				is_core = ROOT
			}
			4826 = {
				development = 30
			}
		}
				
		effect = {
			upper_yanshen_region = {
				limit = {
					NOT = { is_core = ROOT }
					NOT = { owned_by = ROOT }
				}
				add_permanent_claim = ROOT
			}
			country_event = {
				id = jiangdu.5
			}		
		}
	}
	
	jiangdu_everyone_under_one_banner = { 
		icon = a.e.i.o.u. 
		position = 11
		required_missions = { 
			jiangdu_end_northern 
			jiangdu_crashing_enemies 
			jiangdu_tactical_warfare 
		}
			
		trigger = {
			stability = 3
			army_tradition = 95
			NOT = { unrest = 0 }
		}
				
		effect = {
			add_country_modifier = {
				name = jiangdu_everyone_under_banner
				duration = -1
			}
			country_event = {
				id = jiangdu.6
			}		
		}
	}
	
	jiangdu_way_of_success = { 
		icon = mission_state_manufactories 
		position = 12
		required_missions = { jiangdu_everyone_under_one_banner }
		
		provinces_to_highlight = {
			OR = {
				province_id = 4868
				province_id = 4871
				province_id = 4826
				province_id = 4859
			}
			NOT = { 
				development = 40
				has_manpower_building_trigger = yes
				has_courthouse_building_trigger = yes 
			}
		}
		
		trigger = {
			treasury = 1000
			4868 = { #Jiangdu
				development = 40
				has_manpower_building_trigger = yes
				has_courthouse_building_trigger = yes
			}
			4871 = { #Tianlou
				development = 40
				has_manpower_building_trigger = yes
				has_courthouse_building_trigger = yes
			}
			4826 = { #Bianfang
				development = 40
				has_manpower_building_trigger = yes
				has_courthouse_building_trigger = yes
			}
			4859 = { #Yanchung
				development = 40
				has_manpower_building_trigger = yes
				has_courthouse_building_trigger = yes
			}
		}
				
		effect = {
			add_treasury = -1000
			country_event = {
				id = jiangdu.7
			}		
		}
	}
	
	jiangdu_one_empire_under_sun = { 
		icon = mission_empire 
		position = 13
		required_missions = { jiangdu_way_of_success }
			
		trigger = {
			total_development = 800
			OR = {
				courthouse = 10
				town_hall = 10
			}
			training_fields = 10
			army_size = 100
		}
				
		effect = {
			remove_government_reform = jiangdu_leadership_reform
			add_government_reform = jiangdu_war_empire
			country_event = {
				id = jiangdu.8
			}		
		}
	}	
}
	

jiangdu4 = {
	slot = 4
	generic = no 
	ai = yes 
	has_country_shield = yes 
	potential = {
		tag = Y13
	}

	jiangdu_warrior_traditions = {
		icon = mission_japanese_samurai
		position = 3
		required_missions = { jiangdu_new_beginning }
		
		trigger = {
			barracks = 4
			manpower_percentage = 0.75
			mil_power = 100
		}
			
		effect = { 
			add_country_modifier = {
				name = jiangdu_warrior_tradition
				duration = -1
			}
			add_mil_power = -100
		}
	}
	
	jiangdu_court_of_officers = {
		icon = feast_of_pheasants
		position = 4
		required_missions = { jiangdu_warrior_traditions }
		
		trigger = {
			mil_power = 150
			treasury = 150
			num_of_generals = 3 
		}
			
		effect = {
			4868 = {
				add_permanent_province_modifier = {
					name = jiangdu_hq 
					duration = -1
				}
			}
			set_country_flag = jiangdu_court_of_officer
		}
	}

	jiangdu_strict_warriors = {
		icon = mission_great_wall 
		position = 5 
		required_missions = {
			jiangdu_court_of_officers
			jiangdu_recruit_army_leaders 
		}
			
		trigger = { 
			army_tradition = 60
			manpower_percentage = 1 
			army_professionalism = 0.05 
		}
		
		effect = {
			add_country_modifier = {
				name = jiangdu_strict_selection
				duration = 7300 
			}
		}
	}

	jiangdu_reforming_army_org = {
		icon = mission_have_two_subjects
		position = 6
		required_missions = {
			jiangdu_strict_warriors
		}
		
		trigger = { 
			adm_power = 100
			estate_loyalty = {
				estate = estate_nobles
				loyalty = 60
			}
			army_tradition = 90
		}

		effect = {
			add_mil_power = 200
		}
	}
	
	jiangdu_great_military_academy = {
		icon = mission_early_modern_university
		position = 7
		required_missions = {
			jiangdu_reforming_army_org
		}
		
		trigger = { 
			treasury = 700
			mil_power = 200
			4868 = {
				development = 50
				has_manpower_building_trigger = yes
				has_forcelimit_building_trigger = yes
			}
		}

		effect = {
			add_mil_power = -200
			add_treasury = -700
			4868 = { 
				add_permanent_province_modifier = {
					name = jiangdu_military_academy
					duration = -1
				}
			}
		}
	}
	
	jiangdu_city_of_bianfang = {
		icon = mission_city_prosperity
		position = 10 
		required_missions = { jiangdu_crashing_enemies }
			
		trigger = {
			4826 = {
				development = 35
				has_manpower_building_trigger = yes
				base_manpower = 15
			}
		}
			
		effect = {
			country_event = {
				id = jiangdu.9
			}
		}
	}
}
	
jiangdu5 = {
	slot = 5
	generic = no 
	ai = yes 
	has_country_shield = yes
	potential = {
		tag = Y13
	}
	
	jiangdu_paper_jiangdu = {
		icon = mission_ahmadabad_paper
		position = 3
		required_missions = {
			jiangdu_new_beginning 
		}
			
		trigger = {
			4868 = {
				base_production = 14 
				has_production_building_trigger = yes
			}
		}
		
		effect = {
			4868 = {
				add_base_production = 2 
				add_province_modifier = {
					name = jiangdu_paper_modifier
					duration = 9125
				}
			}
		}
	}
	
	jiangdu_river_capital = {
		icon = austria_prospers
		position = 4
		required_missions = {
			jiangdu_paper_jiangdu
		}
		
		trigger = {
			4868 = {
				has_trade_building_trigger = yes 
			}
		    	dip_power = 100
		}
		
		effect = {
			add_dip_power = -100
			add_base_production = 2 
			add_country_modifier = {
				name = jiangdu_river_modifier 
				duration = -1
			}
		}
	}
	
	jiangdu_great_monument = {
		icon = found_the_vatican_library
		position = 5
		required_missions = {
			jiangdu_river_capital
		}
		
		trigger = {
			4868 = {
				development = 40 
			}
		    	dip_power = 150
			adm_power = 150
			treasury = 500
		}
		
		effect = {
			add_dip_power = -150
			add_adm_power = -150
			add_treasury = -500
			add_base_production = 2 
						
			4868 = {
				add_permanent_province_modifier = {
					name = jiangdu_library 
					duration = -1
				}
			}	
			country_event = {
				id = jiangdu.10
			}
		}
	}

	jiangdu_city_of_thousands = {
		icon = mission_crusade_for_varna
		position = 6
		required_missions = {
			jiangdu_great_monument
		}
		
		trigger = {
			4868 = {
				variable_arithmetic_trigger = {
					custom_tooltip = jiangdu_more_dev_than_tianlou_tt
					export_to_variable = { 
						which = jiangduDevelopment 
						value = development 
						who = 4868 
					}
					export_to_variable = { 
						which = tianlouDevelopment 
						value = development 
						who = 4871 
					}
					change_variable = { 
						which = jiangduDevelopment 
						value = 1 
					}
					check_variable = { 
						which = jiangduDevelopment 
						which = tianlouDevelopment 
					}
				}
			}
		    	stability = 2
			treasury = 500
		}
		
		effect = {
			add_treasury = -500	
			4868 = {
				add_permanent_province_modifier = {
					name = jiangdu_city_of_thousands
					duration = -1
				}
			}	
		}
	}
	jiangdu_lords_of_war = {
		icon = mission_cannons_firing
		position = 8
		required_missions = {
			jiangdu_great_military_academy
		}
		
		trigger = {
			army_tradition = 95
			total_development = 500
			manpower_percentage = 1
		}
		
		effect = {
			add_treasury = -500	
			add_country_modifier = {
				name = jiangdu_lords_of_war 
				duration = -1
			}
			country_event = {
				id = jiangdu.11
			}	
		}
	}
	
	jiangdu_tactical_warfare = {
		icon = mission_non-western_soldiers
		position = 10
		required_missions = { 
			jiangdu_lords_of_war
		}
		
		trigger = {
			mil_tech = 16
			army_professionalism = 0.20
		}
		
		effect = {
			set_estate_privilege = estate_nobles_jiangdu_officer_corp
		}
	}
}